id;libelle;date_creation;date_modification;etat;gerant_id
1;Unbranded directional;2020-09-21T08:55:18;2020-09-20T17:43:56;false;1
2;Chicken;2020-09-21T00:43:55;2020-09-21T02:12:46;false;2
3;Bahamas;2020-09-21T01:20:53;2020-09-21T06:12:48;false;1
4;Personal gold;2020-09-20T15:03:57;2020-09-20T20:58:34;true;1
5;help-desk;2020-09-20T17:35:36;2020-09-21T05:01:14;true;1
6;array front-end;2020-09-20T23:56:57;2020-09-20T22:52:18;false;1
7;Account Account;2020-09-21T03:17:05;2020-09-21T04:42:08;true;2
8;Soft attitude;2020-09-21T01:56:29;2020-09-20T11:37:48;false;2
9;application Specialiste monetize;2020-09-21T10:27:55;2020-09-20T14:32:24;true;2
10;Tasty;2020-09-20T16:22:33;2020-09-20T15:58:05;false;2
