id;numero_telephone;piece_identite;piece_identite_content_type;copie_agrement;copie_agrement_content_type;date_naissance;lieu_naissance;genre;user_id;nationnalite_id
1;customer;../fake-data/blob/hipster.png;image/png;../fake-data/blob/hipster.png;image/png;2020-08-02;web-readiness;de multi-byte;1;1
2;ADP fault-tolerant Small;../fake-data/blob/hipster.png;image/png;../fake-data/blob/hipster.png;image/png;2020-08-01;ivory Basse-Normandie;Analyste Tuna Rial;2;2
