id;libelle;date_ajout;date_modification
1;conglomeration Table driver;2020-09-20T13:23:52;2020-09-21T05:28:11
2;deliverables;2020-09-20T15:18:59;2020-09-20T22:52:57
3;c b Haute-Normandie;2020-09-21T10:04:15;2020-09-20T12:28:50
4;online auxiliary;2020-09-20T20:33:57;2020-09-20T13:18:15
5;c Soap;2020-09-21T05:36:04;2020-09-21T09:56:40
6;exuding calculate;2020-09-20T22:40:17;2020-09-21T06:55:36
7;deposit override;2020-09-21T10:29:14;2020-09-20T16:10:03
8;integrate Hat parse;2020-09-20T19:46:55;2020-09-21T07:24:37
9;Lepic;2020-09-21T03:53:48;2020-09-21T04:16:04
10;Borders sensor Nord-Pas-de-Calais;2020-09-20T14:33:14;2020-09-20T18:47:47
