{
  "fluentMethods": true,
  "clientRootFolder": "",
  "relationships": [],
  "fields": [
    {
      "fieldName": "image",
      "fieldType": "byte[]",
      "fieldTypeBlobContent": "image"
    }
  ],
  "changelogDate": "20211118091503",
  "dto": "no",
  "searchEngine": false,
  "service": "serviceClass",
  "entityTableName": "departement",
  "databaseType": "sql",
  "readOnly": false,
  "jpaMetamodelFiltering": false,
  "pagination": "no",
  "name": "Departement"
}
