{
  "fields": [
    {
      "fieldName": "image",
      "fieldType": "byte[]",
      "fieldTypeBlobContent": "image",
      "fieldValidateRules": ["required"]
    },
    {
      "fieldName": "date",
      "fieldType": "Instant",
      "fieldValidateRules": ["required"]
    }
  ],
  "relationships": [],
  "service": "serviceClass",
  "dto": "no",
  "jpaMetamodelFiltering": false,
  "readOnly": false,
  "pagination": "pagination",
  "name": "ImageProduit",
  "changelogDate": "20211130203846"
}
