{
  "fluentMethods": true,
  "clientRootFolder": "",
  "relationships": [],
  "fields": [
    {
      "fieldName": "libelle",
      "fieldType": "String",
      "fieldValidateRules": ["required"]
    }
  ],
  "changelogDate": "20200903192449",
  "dto": "no",
  "searchEngine": false,
  "service": "no",
  "entityTableName": "pays",
  "databaseType": "sql",
  "readOnly": false,
  "jpaMetamodelFiltering": false,
  "pagination": "pagination",
  "name": "Pays",
  "embedded": false,
  "applications": "*"
}
