{
  "name": "Prixproduit",
  "fields": [
    {
      "fieldName": "prix",
      "fieldType": "Double",
      "fieldValidateRules": ["required"]
    },
    {
      "fieldName": "dateAjout",
      "fieldType": "Instant",
      "fieldValidateRules": ["required"]
    },
    {
      "fieldName": "dateModification",
      "fieldType": "Instant",
      "fieldValidateRules": ["required"]
    }
  ],
  "relationships": [
    {
      "relationshipType": "one-to-one",
      "otherEntityName": "produit",
      "otherEntityRelationshipName": "prixproduit",
      "relationshipValidateRules": "required",
      "relationshipName": "produit",
      "otherEntityField": "id",
      "ownerSide": true
    },
    {
      "relationshipType": "many-to-one",
      "otherEntityName": "compagne",
      "otherEntityRelationshipName": "prixproduit",
      "relationshipValidateRules": "required",
      "relationshipName": "compagne",
      "otherEntityField": "id"
    }
  ],
  "changelogDate": "20200921111223",
  "entityTableName": "prixproduit",
  "dto": "no",
  "pagination": "pagination",
  "service": "serviceClass",
  "jpaMetamodelFiltering": true,
  "fluentMethods": true,
  "readOnly": false,
  "embedded": false,
  "clientRootFolder": "",
  "applications": "*"
}
