<?xml version="1.0" encoding="utf-8"?>
<!-- Generator: Adobe Illustrator 25.0.0, SVG Export Plug-In . SVG Version: 6.00 Build 0)  -->
<svg version="1.1" id="Calque_1" xmlns="http://www.w3.org/2000/svg" xmlns:xlink="http://www.w3.org/1999/xlink" x="0px" y="0px"
	 viewBox="0 0 1920 110" style="enable-background:new 0 0 1920 110;" xml:space="preserve">
<style type="text/css">
	.st0{opacity:0.2;fill-rule:evenodd;clip-rule:evenodd;fill:#4C8DE1;}
	.st1{fill-rule:evenodd;clip-rule:evenodd;}
	.st2{fill-rule:evenodd;clip-rule:evenodd;fill:#FFFFFF;}
	.st3{fill-rule:evenodd;clip-rule:evenodd;fill:#4B93CF;}
	.st4{fill-rule:evenodd;clip-rule:evenodd;fill:#1F6BB2;}
	.st5{fill:#4C8DE1;}
	.st6{fill:none;stroke:#000000;stroke-width:6;stroke-miterlimit:10;}
</style>
<g>
	<rect x="818.4" y="0.1" class="st0" width="625" height="110.4"/>
	<g>
		<g>
			<path class="st1" d="M528.3,106.5c-9.3,0.1-17.3-1.9-24.8-6.1c-3.7-2-7.2-4.6-10.3-7.5c-4.8-4.4-8.6-9.7-11.5-15.6
				c-2.1-4.4-3.4-9-4.3-13.8c-0.7-4.1-0.9-8.3-0.5-12.4c0.3-4.5,1.3-9,2.9-13.3c2.1-5.8,5.2-11.2,9.2-15.8c2.5-3,5.5-5.6,8.6-8
				c6.2-4.6,13.2-7.6,20.8-9.1c3.9-0.7,7.9-1,11.9-0.7c7.2,0.4,14,2.2,20.4,5.6c10.7,5.7,18.5,14.1,23.5,25.1c2,4.4,3.3,9,3.7,13.7
				c0.1,2,0.5,4,0.5,6.1c0.1,1.9-0.1,4-0.4,5.9c-0.4,4-1.3,7.9-2.6,11.6c-2.2,6.3-5.5,11.9-10,16.9c-4,4.6-8.8,8.4-14.2,11.3
				c-4.8,2.5-9.7,4.3-15.1,5.2C533.4,106.3,530.5,106.6,528.3,106.5z M531.3,77c-0.1-0.2-0.2-0.2-0.4-0.4c-0.8-1.3-1.9-2.1-3.6-2.2
				c-1.2,0.5-2.3,1-2.9,2.2c-0.2,0.1-0.2,0.2-0.4,0.4c-0.2,0.1-0.2,0.2-0.4,0.4s-0.2,0.1-0.4,0.3l-0.1,0.1l0.1-0.1
				c0.2-0.1,0.2-0.2,0.3-0.4c0.2-0.1,0.2-0.2,0.4-0.4c0.2-0.2,0.2-0.2,0.4-0.4c0.4-0.1,0.8-0.3,1-0.5c1.5-0.9,2.9-1.2,4.4,0
				c0.3,0.2,0.7,0.4,1,0.5C531.1,76.7,531.2,76.8,531.3,77c0.2,0.1,0.2,0.2,0.4,0.3c0.1,0,0.1,0.1,0.2,0.1c-0.1,0-0.1-0.1-0.2-0.1
				C531.5,77.2,531.4,77.1,531.3,77z M531.3,74.3c0.1,0.1,0.1,0.1,0.1,0.1C531.4,74.3,531.3,74.3,531.3,74.3c-0.5-0.5-0.9-1-1.4-1.5
				c-1.2-1.1-2.3-1.3-3.7-0.4c-0.9,0.5-1.6,1.3-2.4,2c0.7-0.1,1.1-0.5,1.6-0.9c1.9-1.3,2.9-1.3,4.8,0
				C530.5,73.8,530.9,74,531.3,74.3z M511.3,7.5c-1.1,0.4-2,0.7-3,1c-8.9,4-16.2,9.7-21.8,17.8c-5.2,7.4-8.1,15.8-8.8,24.7
				c-0.4,4.8-0.1,9.7,0.9,14.4c2.6,12,8.7,21.8,18.2,29.5c4.1,3.4,8.8,5.8,13.8,7.7c4,1.5,8.3,2.5,12.6,2.8c3.5,0.2,7,0.2,10.6-0.1
				c3.8-0.5,7.6-1.3,11.2-2.7c6.7-2.5,12.6-6.3,17.7-11.4c4.9-4.9,8.8-10.6,11.3-17.1c1.6-3.9,2.8-7.8,3.1-12
				c0.1-2.5,0.5-4.9,0.5-7.5c0-2.2-0.4-4.4-0.6-6.6c-0.8-7-3.4-13.6-7-19.6c-3.4-5.5-7.6-10.1-12.7-13.9c-4-3-8.5-5.5-13.6-7.1
				c-1.3,3-2.6,6.1-4,9.1c0.8,0.3,1.3,0.5,1.7,0.7c1.6,0.7,3.2,1.4,4.8,2.2c2.5,1.3,4.7,3,6.9,4.7c4.3,3.5,7.6,7.8,10,12.6
				c2.2,4.4,3.7,9.1,4.1,14.2c0.4,4.1,0.2,8.2-0.6,12.2c-1.7,8.2-5.6,15.2-11.6,21.1c-2.5,2.4-5.2,4.3-8.2,6.1
				c-4.9,2.8-10.3,4.4-16,4.9c-3.5,0.3-7.1,0.2-10.7-0.5c-7.9-1.5-14.8-5.1-20.4-10.6c-7.8-7.6-11.8-17.2-12.3-28
				c-0.1-1.6,0.1-3.3,0.3-4.9c0.1-3,0.8-6,1.8-8.8c1.7-4.9,4.2-9.4,7.6-13.4c3.7-4.4,8.2-7.9,13.4-10.3c1.5-0.7,3-1.3,4.4-1.9
				C514.8,15,512.4,9.3,511.3,7.5z M513.4,18.2c-6.6,2.6-11.9,6.4-16.1,11.8c-4.9,6.2-8,13.3-8.8,21.3c-0.4,3.7-0.2,7.3,0.4,11
				c1.6,8.8,5.8,16.3,12.4,22.5c2.6,2.4,5.5,4.4,8.7,5.9c4,1.9,8.1,3.2,12.5,3.7c5.2,0.6,10.3,0.4,15.2-1
				c11.1-3.1,19.3-9.9,24.7-20.1c3.7-7.1,5-14.7,4-22.6c-0.5-3.8-1.3-7.5-2.8-11c-2-4.9-4.9-9.2-8.7-13c-3.7-3.7-8-6.4-12.8-8.3
				c-0.1-0.1-0.3,0-0.5,0c-0.2,3.4-2.5,5.9-3.8,8.9c1.5,2.8,1.6,3,3.1,3.7c0.4-0.7,0.8-1.5,1.1-2.2c2.7,1.8,4.6,4,6.6,6.6
				c-0.8,0.6-1.4,1.2-2.1,1.7c0.8,1.3,1.6,2.5,2.3,3.7c0.7-0.3,1.3-0.7,2-1c1.3,1.8,2.7,6.7,2.3,8.5c-0.7,0.1-1.3,0.2-2,0.3
				c0,1.5,0,2.8,0,4c0.9,0.4,2-0.1,2.5,0.7c-0.2,2.3-0.2,4.6-1.3,6.9c-0.9-0.2-1.6-0.5-2.4-0.8c-0.5,1.5-1,2.9-1.6,4.4
				c0.7,0.5,1.3,1,2.1,1.6c-1.6,4-3.7,7.6-5.2,11.8c1.6,0,2.8,0,4.2,0c0.2,1.2,0.2,2.2,0.3,3.4c0.6-0.3,1.1-0.5,1.5-0.7
				c0-1.9-1.6-2.6-1.9-4c1.3-1.9,3.4-1.1,5.3-1.8c-0.1-3.9-0.3-7.9-0.4-11.8c0-0.8,0-1.6,0.1-2.3c0.2-1.7,0.5-3.4,0.5-5.2
				c0-2.5,0.3-4.9,0.9-7.3c0.7-3,1.5-6.1,2.3-9.1c0.1-0.1,0.1-0.2,0.4-0.5c0.2,0.4,0.2,0.5,0.3,0.8c0.8,3.4,1.9,6.6,2.9,9.7
				c0.8,2.2,1.3,4.4,1.4,6.6c0.3,3.2-0.8,6.1-2.6,8.8c-1.9,2.7-3.4,5.6-4.5,8.8c-0.1,0.5-0.3,0.9-0.4,1.5c1.6,0.4,3.3,0.1,4.3,1.9
				C551.2,87.8,540,94.7,525,93.7c-6.7-0.4-12.9-2.6-18.4-6.6c-4.3-3.1-7.9-6.8-10.9-11c1-1.9,2.8-1.4,4.2-1.9
				c-0.1-0.3-0.2-0.6-0.2-0.9c-0.8-2.7-2.2-5.2-3.5-7.6c-1.1-1.9-2.3-4-3.1-6.1c-1.2-3.3-0.5-6.6,0.4-9.9c0.9-3,1.8-5.8,2.7-8.8
				c0.3-1,0.5-2,0.9-3c0.4,0.7,0.5,1.3,0.8,2c0.7,2.5,1.4,4.9,1.9,7.4c0.4,1.9,0.8,3.9,0.8,5.8c0,1.4,0,2.8,0.4,4.1
				c0.1,0.1,0.1,0.4,0.1,0.7c-0.2,4.4-0.2,8.8-0.3,13.1c0,0.9,0,1.8,0,2.7c1.9,0.9,4.2-0.1,5.5,1.9c-0.8,1.3-2.3,2.2-2,4.1
				c0.5,0.2,1,0.2,1.6,0.4c0.1-1.2,0.1-2.2,0.1-3.1c1.5-0.5,2.9,0.1,4.3-0.5c-1.8-3.8-3.6-7.6-5.3-11.3c0.8-0.6,1.5-1.1,2.2-1.6
				c-0.5-1.5-1.1-2.9-1.6-4.3c-0.9,0.2-1.6,0.5-2.3,0.7c-1-2.3-1.3-4.7-1.3-7.1c0.9-0.1,1.8-0.3,2.5-0.4c0-1.5,0-2.8,0-4.1
				c-0.8-0.1-1.4-0.1-2.1-0.3c-0.2-2.2,1.1-7.1,2.3-8.5c0.7,0.3,1.3,0.7,2,1c0.7-1.3,1.4-2.5,2.2-3.8c-0.7-0.5-1.3-1.1-2.1-1.7
				c1.9-2.5,3.7-4.8,6.5-6.5c0.5,0.8,0.8,1.6,1.2,2.3c1.7-0.9,2.1-2.6,3-3.9C515.9,24.2,513.9,21.7,513.4,18.2z M535,67.2
				c0.5-0.2,1-0.4,1.6-0.5c3.1-1,5.2-3.1,6.6-6.1c1.4-3.1,1.6-6.4,1.6-9.7c-0.2-4-1.5-7.6-4-10.9c-0.7-0.9-1.6-1.7-2.6-2.2
				c-0.5,1.3-1,2.6-1.7,3.7c-0.7,1-0.5,2.5-1.6,3.4c-0.9-0.5-0.8-1.3-0.8-2.1c0.2-3-0.2-6-0.8-9c-0.2-0.7-0.2-1.6,0-2.3
				c0.5-3.4,2-6.4,3.4-9.4c0.7-1.6,1.4-3.1,1.9-4.9c-7.3-2-14.5-2-21.7,0c1.4,3.4,2.7,6.6,4,9.8c1.2,2.8,1.7,5.8,1,8.8
				c-0.3,1.5-0.4,3-0.4,4.6c-0.1,1,0,2.2,0,3.2c0,0.6-0.2,1.3-1,1.3c-1-2.3-2-4.7-3.1-7.2c-1.3,1.2-2.5,2.2-3.4,3.6
				c-3.5,5.8-3.9,11.9-1.9,18.3c0.7,2.3,1.9,4.4,4.1,5.7c1.3,0.8,2.8,1.4,4.3,2.2c-0.9,3.1-1.9,6.4-2.9,9.7c0.9,0,1.5,0,2.3,0
				c0.8-3.4,1.5-6.6,2.2-9.9c4,0.1,7.8-0.1,11.6,0.1c1,3.4,1.3,6.7,2.3,9.7c0.8,0,1.4,0,2,0C537,73.9,536,70.6,535,67.2z
				 M516.4,16.4c7.5-2.1,14.8-2.1,22.3,0c1.3-3,2.7-6,4.1-9.1c-10.3-3.2-20.4-3.1-30.7-0.1C513.8,10.4,515.1,13.3,516.4,16.4z
				 M555.3,72.1c1.3-2.3,2.6-4.7,3.9-7c0.8-1.3,1.7-2.6,2.2-4c1.3-3,1.3-6.1,0.5-9.1c-0.8-2.7-1.7-5.3-2.5-8c-0.3-1-0.6-1.9-0.9-2.9
				c-0.9,2.7-1.6,5.2-2.3,7.9c-0.6,2.7-0.8,5.4-0.2,8.1c0.2,0.8,0.4,1.6,0.6,2.7c-1.1-0.6-1-1.5-1.3-2.2c-0.2,1.6-0.3,3.1-0.4,4.8
				c0,0.9,0.2,1.8,0.2,2.7C555.3,67.3,555.3,69.7,555.3,72.1z M497.1,40.4c-0.8,2.5-1.3,4.6-2,6.7c-0.8,2.3-1.4,4.6-1.7,7
				c-0.4,2.8,0.1,5.5,1.3,7.9c1,1.9,2.2,3.7,3.2,5.6c0.8,1.3,1.3,2.8,2.2,4.5c0-5.2,0-10,0-14.8c-0.4,0.6-0.1,1.6-1.3,2.2
				c1.1-3.4,1.3-6.5,0.8-9.6C498.8,46.9,497.9,43.7,497.1,40.4z M540.6,79.7c-3.8,3.3-8.2,4.5-13,4.5s-9.1-1.3-12.8-4.4
				c-0.8,1.9-1.5,3.7-2.2,5.5c0.7,0.3,1.3,0.6,1.9,0.9c0.4-1,0.7-2,1-3c1.2,0.1,1.9,0.7,2.7,1.3c-0.2,1.1-0.4,2.2-0.6,3.4
				c0.5,0.1,1,0.3,1.5,0.5c0.2-1.2,0.5-2.2,0.7-3.4c1,0.3,1.9,0.6,2.7,0.9c-0.1,1.3-0.2,2.4-0.2,3.7c0.5,0.1,0.9,0.1,1.5,0.3
				c0.2-0.7,0.2-1.2,0.3-1.7c0.1-0.5,0.1-1,0.1-1.6c0.9,0,1.7,0,2.5,0c0.1,1.3,0.2,2.4,0.2,3.7c0.8-0.1,1.3-0.1,1.7-0.2
				c0.4-1.3-0.5-2.4,0.2-3.5c0.7,0,1.5,0,2.3,0c0.1,0.6,0.1,1.1,0.1,1.6c0.1,0.5,0.1,1,0.2,1.8c0.8-0.2,1.3-0.4,1.6-0.5
				c-0.2-1.3-0.2-2.5-0.2-3.6c0.9-0.3,1.7-0.7,2.8-0.7c0.2,1.1,0.5,2.1,0.7,3.4c0.5-0.1,0.9-0.4,1.4-0.5c-0.2-1.2-0.5-2.2-0.7-3.4
				c0.9-0.5,1.7-0.9,2.7-1.4c0.5,1.2,0.8,2.2,1.2,3.3c0.6-0.4,1.1-0.7,1.6-1.1C542,83.3,541.3,81.5,540.6,79.7z M516.6,77.3
				c-0.4-0.9-0.8-1.6-1.1-2.2c-1.3,0-2.5,0-3.7,0c-0.2,0.7-0.5,1.3-0.9,2.1C513,77.3,514.7,77.3,516.6,77.3z M543.4,75.1
				c-1.3,0-2.4,0-3.6,0c-0.4,0.7-0.8,1.3-1.3,2.2c2-0.1,3.8,0.1,5.8-0.1C543.9,76.4,543.7,75.8,543.4,75.1z M505.4,76.1
				c-0.7-0.3-1.1-0.5-1.6-0.6c-2-0.4-4-0.1-6.1-0.1c-0.4,0-0.8,0.3-1.4,0.6C499.4,76.7,502.2,77,505.4,76.1z M554.9,75.8
				c-0.1-0.2-0.3-0.4-0.4-0.6c-3.2,0.1-3.2,0.1-4,0.9c2.8,0.6,5.5,0.6,8.4-0.1C557.4,75.1,556.2,75,554.9,75.8z M537,26
				c0.9-2.8,2.2-5.5,3.8-7.9c-0.2-0.1-0.4-0.3-0.5-0.4c-0.1-0.1-0.4-0.1-0.7-0.1C538.5,20.3,537.3,23,537,26z M518.3,26
				c-0.4-3-1.5-5.8-2.7-8.7c-0.5,0.1-0.9,0.4-1.3,0.5C516.6,21.1,516.9,22.1,518.3,26z M524,71.9c3.9-3,5-1.8,7.5,0
				C528.9,67.8,525.9,68.6,524,71.9z"/>
			<path class="st2" d="M555.3,72.1c0-2.3,0-4.7,0-7.1c0-0.9-0.2-1.8-0.2-2.7c0-1.6,0.2-3.1,0.4-4.8c0.3,0.7,0.2,1.6,1.3,2.2
				c-0.2-1-0.5-1.9-0.6-2.7c-0.6-2.7-0.4-5.5,0.2-8.1c0.6-2.6,1.3-5.2,2.3-7.9c0.3,1,0.6,1.9,0.9,2.9c0.8,2.7,1.7,5.2,2.5,8
				c0.9,3.1,0.8,6.2-0.5,9.1c-0.6,1.4-1.5,2.7-2.2,4C557.8,67.4,556.5,69.7,555.3,72.1z"/>
			<path class="st2" d="M497.1,40.4c0.9,3.4,1.7,6.5,2.3,9.6c0.6,3.1,0.3,6.2-0.8,9.6c1.3-0.5,0.9-1.5,1.3-2.2c0,4.9,0,9.7,0,14.8
				c-0.9-1.7-1.5-3.1-2.2-4.5c-1.1-1.9-2.2-3.7-3.2-5.6c-1.3-2.5-1.7-5.1-1.3-7.9c0.3-2.5,0.9-4.8,1.7-7
				C495.7,45,496.3,42.8,497.1,40.4z"/>
			<path class="st2" d="M540.6,79.7c0.8,1.9,1.3,3.6,2,5.4c-0.5,0.4-1.1,0.7-1.7,1.1c-0.4-1.1-0.8-2.1-1.2-3.3c-1,0.5-1.9,1-2.7,1.4
				c0.2,1.1,0.5,2.2,0.7,3.4c-0.4,0.1-0.9,0.4-1.4,0.5c-0.2-1.2-0.5-2.2-0.7-3.4c-1-0.1-1.9,0.4-2.8,0.7c0.1,1.1,0.1,2.3,0.2,3.6
				c-0.4,0.2-0.9,0.3-1.6,0.5c-0.1-0.7-0.2-1.3-0.2-1.8c-0.1-0.5-0.1-1-0.2-1.6c-0.9,0-1.6,0-2.3,0c-0.8,1.1,0.2,2.3-0.1,3.5
				c-0.5,0-1,0.1-1.7,0.2c-0.1-1.3-0.2-2.4-0.2-3.7c-0.9,0-1.6,0-2.5,0c-0.1,0.5-0.2,1-0.2,1.6c-0.1,0.5-0.1,1-0.3,1.7
				c-0.5-0.2-1-0.2-1.5-0.3c0.1-1.3,0.2-2.3,0.2-3.7c-0.9-0.3-1.7-0.5-2.7-0.9c-0.2,1.2-0.4,2.2-0.7,3.4c-0.5-0.2-0.9-0.3-1.5-0.5
				c0.2-1.2,0.4-2.2,0.6-3.4c-0.7-0.7-1.6-1.2-2.7-1.3c-0.4,1-0.7,1.9-1.1,3c-0.6-0.3-1.2-0.5-1.9-0.9c0.7-1.8,1.4-3.6,2.2-5.5
				c3.7,3.2,8.1,4.4,12.8,4.4C532.4,84.2,536.7,83,540.6,79.7z"/>
			<path class="st2" d="M505.4,76.1c-3.1,0.9-5.9,0.7-9.1,0c0.7-0.3,1.1-0.6,1.4-0.6c2-0.1,4-0.3,6.1,0.1
				C504.2,75.5,504.6,75.8,505.4,76.1z"/>
			<path class="st2" d="M554.9,75.8c1.3-0.8,2.5-0.7,4,0.2c-3,0.8-5.6,0.8-8.4,0.1c0.8-0.7,0.8-0.7,4-0.9
				C554.6,75.4,554.7,75.6,554.9,75.8z"/>
			<path class="st3" d="M511.3,7.5c1.3,1.8,3.6,7.5,3.8,9.1c-1.5,0.6-3,1.3-4.4,1.9c-5.2,2.5-9.7,5.8-13.4,10.3
				c-3.4,4-5.8,8.5-7.6,13.4c-1,2.8-1.6,5.8-1.8,8.8c-0.1,1.6-0.4,3.3-0.3,4.9c0.4,10.9,4.5,20.4,12.3,28
				c5.7,5.5,12.5,9.1,20.4,10.6c3.6,0.7,7.1,0.9,10.7,0.5c5.6-0.5,11-2.1,16-4.9c3-1.7,5.8-3.7,8.2-6.1c6-5.8,10-12.9,11.6-21.1
				c0.8-4,1-8,0.6-12.2c-0.5-5-1.9-9.7-4.1-14.2c-2.5-4.8-5.7-9.1-10-12.6c-2.2-1.8-4.4-3.4-6.9-4.7c-1.6-0.8-3.1-1.5-4.8-2.2
				c-0.5-0.2-1-0.4-1.7-0.7c1.3-3.1,2.6-6.1,4-9.1c5.1,1.6,9.4,4,13.6,7.1c5.2,3.8,9.4,8.5,12.7,13.9c3.7,6,6.2,12.5,7,19.6
				c0.2,2.2,0.6,4.4,0.6,6.6c0,2.5-0.4,4.9-0.5,7.5c-0.4,4.2-1.6,8.1-3.1,12c-2.6,6.5-6.4,12.1-11.3,17.1c-5.1,5.1-11,8.8-17.7,11.4
				c-3.6,1.3-7.3,2.2-11.2,2.7c-3.5,0.4-7,0.4-10.6,0.1c-4.3-0.3-8.5-1.3-12.6-2.8c-5-1.9-9.7-4.4-13.8-7.7
				c-9.5-7.6-15.6-17.5-18.2-29.5c-1-4.8-1.3-9.6-0.9-14.4c0.7-9.1,3.7-17.3,8.8-24.7c5.5-8,12.9-13.9,21.8-17.8
				C509.2,8.2,510.2,7.9,511.3,7.5z M507.7,11.6c-1.1-0.1-1.9,0.5-2.7,1c1.1,0.5,2.2,1.1,3.2,1.6c-0.2,1.3-0.5,2.5-0.8,4
				c0.8-0.4,1.5-0.7,2.3-1.1c-0.4-0.3-0.6-0.5-0.9-0.7c0.1-0.4,0.1-0.8,0.2-1.3c0.9,0.2,1.3,0.9,1.3,1.7c0.9-0.4,1.7-0.5,2.2-1.3
				c-1.2-0.7-2.3-1.5-3.4-2.2c0.3-1,0.6-2,0.9-3.1C509,10.5,508.2,10.7,507.7,11.6L507.7,11.6z M559,19.4L559,19.4
				c-0.2-1.1-0.9-1.6-1.7-1.9c-0.2,1.3-0.3,2.3-0.5,3.5c-1.2,0.3-2.2,0.5-3.3,0.8c0.1,0.7,0.8,1,1.3,1.3c0.5-0.4,1-0.8,1.6-1.3
				c0,0.6,0,1,0,1.3c-0.3,0.2-0.6,0.4-1,0.7c0.8,0.6,1.3,1.3,2,1.5c0.1-1.3,0.4-2.5,0.5-3.9c1.1-0.1,2.1-0.4,3.2-0.5
				C560.7,20.3,560.2,19.3,559,19.4z M496.7,86.9L496.7,86.9c0.1,1.6-0.9,3.4-0.5,5.2c1.9-1.3,2.9-3.1,5.2-3.7c-0.6-0.6-1-1-1.7-1.7
				c0,1.7-1.2,2.3-2.2,3.2c0.4-1.6,0.6-3,0.9-4.4c-0.4-0.5-0.5-1.1-1.3-1.3c-0.2,0.4-0.2,0.8-0.3,1.3c-1.4,0.6-2,2.5-4,2.7
				c0.6,0.6,0.9,1.3,1.5,1.4c0.4-0.7,0.7-1.3,1.1-1.6C495.7,87.5,496.3,87.2,496.7,86.9z M571.7,45.5L571.7,45.5
				c-1,1.1-2,2.2-2.9,3.4c0.1,0.5,0.4,0.9,0.5,1.3c1.9-0.9,3.8-1.6,5.9-1c-0.1-0.8-0.4-1.4-0.5-2.3c-1.1,1.3-2.3,1.4-3.7,1.5l0,0
				c1-1.3,2.4-2.3,3.1-4c-1.9-0.1-3.5,0.7-5.2,0.8c-0.3-0.1-0.5-0.3-1.1-0.5c0.2,1,0.4,1.6,0.7,2.8
				C569.3,45.5,570.6,45.6,571.7,45.5z M482.4,71.1c1.3-1.3,1.6-1.5,3.1-1.6c-0.8,1-2.2,1.4-2.7,2.8c1.3,0.7,2.5,0.1,4,0.5
				c-1.3,0.3-2.4,0.6-3.5,0.9c0.4,0.7,0.2,1.6,1.1,2.3c0.1-0.4,0.3-0.7,0.4-1c1.3-0.5,2.5-1,3.7-1.5c0.4,0.1,0.8,0.3,1.6,0.7
				c-0.4-0.9-0.7-1.6-0.9-2.2c-1.4-0.1-2.7-0.2-4.1-0.2c1.1-0.9,2.2-1.9,3.2-2.8c-0.4-0.7-0.4-1.5-1.2-1.9c-0.2,0.4-0.4,0.7-0.5,1
				c-1.6,0.4-3,1.6-5,0.9C481.8,69.7,482.1,70.4,482.4,71.1z M573.3,70.1c-1.6,1-3,1.2-4.6,1c-0.2-1-0.4-1.9-0.8-2.9
				c-0.9,0.6-0.9,1.6-1.3,2.4c0.5,0.1,0.8,0.1,1.1,0.1c0.2,0.5,0.4,1,0.5,1.6c-0.1,0.1-0.2,0.1-0.2,0.1c-0.5-0.4-1-0.8-1.6-1.3
				c-0.4,0.8-0.7,1.6-1,2.2c1.3-0.4,2.1,0.2,3,0.6c0.9,0.4,2,0.8,2.4,2.3c0.5-1.1,0.9-1.9,1.3-2.7c-0.1-0.1-0.2-0.1-0.2-0.2
				c-0.3,0.1-0.7,0.2-1.1,0.4c-0.5-0.2-0.9-0.5-1.3-0.8c1-0.7,1.9-0.8,2.9,0C572.7,72,573.2,71.3,573.3,70.1z M562.8,88.1
				c0.8-1,1.6-1.8,2.1-2.7c0.8-1.3,0.3-3-0.9-4c-1.4-1-2.5-1-3.7,0.2c-0.8,0.7-1.3,1.5-2.1,2.2C560.3,84.7,561.7,86,562.8,88.1z
				 M514.5,101.6c0.8,0.5,1.6,0.5,2.6,0.4c-0.5-0.8-0.6-1.6-0.2-2.5c0.5,1.2,0.8,2.1,1.1,3.1c0.5,0,1,0,1.6,0
				c-0.5-1-0.8-1.9-1.1-2.6c0.6-0.6,1.1-1.2,1.6-1.7c-0.7-2.5-2.7-2.2-4.4-2.7C516.3,97.7,515.7,99.7,514.5,101.6z M570.9,57.2
				c-2,0.5-2.1,2-1.9,4.6c1.6-1.1,3.3,0,4.9-0.1c0.2,0.1,0.2,0.4,0.3,0.5c0.1,0.1,0.3,0.1,0.5,0.3c0.5-1.6,0.5-1.6,0.2-2.6
				c-1,0.5-1,0.5-2.1,0c0.8-0.4,1.6-0.7,2.4-1.1c0.1-0.6,0.7-1.2-0.1-1.9c-0.6,0.9-1.4,1.5-2.4,1.6C572,58,571.4,57.5,570.9,57.2z
				 M507.7,99.1c1.6,0.7,3.1,1.3,4.5,1.9c0.4-0.6,1.2-0.8,1.1-1.8c-0.8,0.2-1.3,0.4-1.9,0.6c-0.4-0.2-0.9-0.5-1.3-0.7
				c0.4-0.6,0.3-1.4,1.3-1.6c0.2,0.4,0.3,0.7,0.6,1.4c0.4-1,0.7-1.6,1.1-2.5c-0.7,0.1-1.2,0.1-2,0.2c0.4-0.7,0.6-1.2,0.8-1.5
				c1.5-0.1,1.5,1.3,2.5,1.9c0.1-0.9,0.2-1.4,0.2-2c-1.5-0.5-2.7-1.3-4.3-1.5c0.2,0.5,0.3,0.9,0.5,1.3
				C509.7,96.2,509.8,98,507.7,99.1z M572.4,53.9c0.4-0.6,0.7-1,1-1.5c-0.9,0-1.6,0-2.4,0c0.2,0.5,0.4,1,0.7,1.6
				c-0.7-0.1-1.2-0.1-1.4-0.1c-0.8-1.3,0.5-1.8,0.7-3c-0.7,0.2-1.2,0.4-1.6,0.5c0,1.6,0,3,0,4.6c0.5-0.4,0.9-0.6,1.3-0.9
				c1.4,0.5,3.1-0.6,4.7,0.7c0-1.7,0.2-3.1-0.2-4.5c-0.9-0.5-0.9-0.5-1.9-0.4c0.6,0.9,1.9,1.4,1.1,2.8
				C573.8,53.9,573.3,53.9,572.4,53.9z M551.7,14.8c-0.9,1.3-1.5,2.8-3.3,3.6c1.3,0.9,2.5,1.6,3.8,2.5c0.5-0.4,0.9-0.7,1.6-1.3
				c-1.4,0-2.5,0.4-3.3-0.9c0.4-0.5,0.8-1,1.3-1.8c0.2,0.8,0.4,1.3,0.5,1.9c0.8-0.6,1.3-1.3,1.4-2.3c-0.5,0.1-1,0.1-1.9,0.3
				c0.4-0.8,0.8-1.3,1-1.7c1.3,0.4,1.3,1.5,1.9,2.4c0.4-0.7,0.5-1.3,0.4-1.9c-1.3-0.7-2.2-1.9-3.7-2.3
				C551.7,13.9,551.7,14.3,551.7,14.8z M482.5,41.3c0.4-0.9,0.4-0.9,1.6-1.6c0.9,0.4,1.9,0.7,2.8,1.1c0.2,1.6,0.2,1.6-1.3,3
				c0.6,0.5,1.3,0.3,1.9,0.1c0.2-0.8,0.5-1.6,0.7-2.3c-0.9-2.3-2.4-3.4-4.3-3c-1.5,0.3-2.2,1.6-2.3,3.9c0.8,0.5,1.5,1,2.3,1.6
				c0.4-0.7,0.7-1.6,0.8-2.6C483.9,41.6,483,42.5,482.5,41.3z M487.2,65.8c-0.2-0.5-0.4-1.2-0.5-1.9c-1.6,1.3-4.6,1.9-5.3,1
				c0-0.3,0.1-0.8,0.1-1.3c1.3-0.4,2.5-0.8,3.6-1.1c0.5,0.1,0.9,0.4,1.6,0.6c-0.3-1.1-0.5-1.9-0.7-2.5c-0.9,0.4-1.6,0.7-2.4,1
				c-0.5,0.1-1.3,0.3-1.8,0.5c-1.3,0.5-1.6,1.3-1.3,2.6c0.4,1.5,1.1,1.9,2.4,1.8c0.5-0.1,1.1-0.3,1.6-0.4
				C485.4,65.9,486.1,65.9,487.2,65.8z M568.1,64.7c-0.5,1.1,0.2,1.3,0.8,1.7c1.5,1,3.2,1.6,4.3,3.3c0.5-0.8,0.7-1.6,0.6-2.4
				c-0.7,0.3-1.4,0.5-1.9-0.1c0.2-0.4,0.2-0.9,0.3-1.3c0.4-0.1,0.8-0.2,1.1-0.2c0.2,0.3,0.5,0.5,0.9,1c0.2-1.2,0.2-1.9,0.4-2.7
				c-1.2,0.1-2.2,0.2-3.3,0.4C570.3,64.4,569.2,64.6,568.1,64.7z M539.2,95.5c-1.1,0.2-1,0.9-1.1,1.6c-0.2,1.7-0.2,3.4-0.9,5.2
				c0.9,0.4,1.6-0.1,2.3-0.4c-0.3-0.5-1.3-0.8-0.5-1.7c0.4-0.1,0.9-0.2,1.3-0.3c0.9,0.5,0.5,1.2,0.1,2c1-0.2,1.9-0.4,2.6-0.5
				C541.5,99.2,540.4,97.3,539.2,95.5z M503.1,20.8c2.8-0.9,3.3-2.3,1.5-4.6c-0.1-0.1-0.1-0.1-0.2-0.1c-0.7-0.7-1.3-1.5-1.1-2.7
				c-0.6,0.5-1.6,0.5-1.7,1.5c1.7,0.9,2.6,2.3,3.2,4c-0.5,0.4-1,0.7-1.4,1c-1.5-0.8-1.9-2.2-2.8-3.3c0-0.4,0.1-0.7,0.1-1.4
				c-0.9,0.7-1.6,1.2-2.5,1.9c1.6,0.1,1.9,1,2.5,1.8C501.3,19.7,501.7,20.6,503.1,20.8z M495.1,81.7c-0.5,1.9-1.8,2.3-2.8,3.1
				c-0.5,0.4-1,0.5-1.6,0.2c-0.6-0.5-0.5-1-0.2-1.8c0.9-0.7,1.9-1.3,2.7-1.9c0.5,0,1,0,1.6,0c-0.8-0.8-1-1.8-1.6-2
				c-0.8,0.7-1.3,1.3-1.9,1.9c-0.4,0.4-0.9,0.7-1.3,1.1c-0.9,0.9-1,1.8-0.3,2.9c0.7,1,1.7,1.3,2.8,0.7c0.5-0.3,1.1-0.7,1.6-1
				c0.7-0.5,1.3-1,2.7-0.6C496.1,83.2,495.7,82.6,495.1,81.7z M563.1,76.4c0.9,2.5,3.5,3.4,4,6.3c0.6-1,0.9-1.6,1.6-2.5
				c-1,0.1-1.9,0.3-1.9-0.8c0.2-0.3,0.5-0.7,0.9-1.3c0.5,0.5,1,0.9,1.6,1.3c0.4-0.7,0.8-1.4,1.3-2.3C567.9,77.5,565.8,76,563.1,76.4
				z M562.3,31.6c0.3,0.8,0.5,1.3,0.7,1.9c0.4,0.7,1.1,1,1.9,0.9c0.9-0.2,1.5-0.9,1.5-1.8c0-0.4-0.2-0.9-0.2-1.3s0.2-0.9,0.2-1.4
				c2.5,0.1,0.9,2,1.6,3.1c0.5-0.5,0.9-0.9,1.3-1.3c-0.4-0.7-0.6-1.3-0.9-1.9c-0.5-0.8-1.3-1.2-2.2-1c-0.9,0.2-1.3,0.9-1.3,1.9
				c0,0.7,0.1,1.3,0.2,2.1c-0.3,0.1-0.5,0.4-0.9,0.6c-1.3-0.7-0.1-1.8-0.7-2.7C563.1,31.1,562.6,31.4,562.3,31.6z M554.2,95.5
				c0.5-0.3,1-0.6,1.5-0.9c1-0.7,1.3-1.6,0.8-2.5s-1.1-1.1-2.3-0.9c-0.8,0.1-1.6,0.4-2.2-0.1c0.4-1,0.4-1,2.5-1
				c0.2-0.9-0.7-0.9-1-1.3c-0.4,0.2-0.9,0.4-1.3,0.5c-1,0.5-1.3,1.4-1.1,2.4c0.3,0.9,1.1,1.3,2.2,1c0.5-0.1,1.1-0.1,1.6-0.2
				c0.2,0,0.3,0.2,0.5,0.3c-0.2,0.4-0.2,0.8-0.3,1.2c-0.9,0.1-1.6,0.1-2.5,0.2c0.2,0.4,0.3,0.5,0.5,0.6
				C553.5,95,553.9,95.3,554.2,95.5z M570.9,37.7c-1.6,0.7-1.8,1.1-1.9,2.8c-0.1,0.6,0.2,1.3-0.8,1.4c-1.3-0.9,0.3-1.9-0.2-3
				c-0.5,0.4-1,0.7-1.4,1c0.2,0.5,0.2,1.1,0.2,1.6c0.2,0.7,0.6,1.2,1.4,1.3c1.3,0.1,1.9-0.5,2.1-1.8c0.1-0.7-0.2-1.6,0.6-2.3
				c0.3,0.1,0.6,0.3,1.1,0.5c-0.2,0.9-0.4,1.8-0.6,3c0.8-0.5,1.3-0.9,1.8-1.2C572.7,39.7,572.8,38.1,570.9,37.7z M525,97.4
				c-0.4-0.1-0.8-0.4-1.2-0.4c-1-0.2-1.9,0.1-2.3,1.2c-0.4,0.9-0.1,1.6,1,2.2c0.3,0.2,0.6,0.2,0.9,0.4c0.5,0.2,0.9,0.7,0.9,1.3
				c-1.6,1.3-2.2-0.7-3.4-1c0.3,0.8,0.5,1.4,0.7,1.9c3,0.5,3.3,0.5,4-1.7c-0.3-0.4-0.7-1-1.2-1.4c-0.5-0.4-1.3-0.7-2.1-1
				c0.4-0.5,0.5-0.8,0.9-1.3c0.8,0.5,1.4,1,2,1.4c0.1-0.1,0.2-0.2,0.2-0.2C525.3,98.2,525.1,97.7,525,97.4z M530.3,97.1
				c0,0.9-0.4,1.4,0,2.1c0.3-0.3,0.5-0.6,0.8-0.8c0.3-0.2,0.6-0.4,1-0.6c0.5,1.8,0.9,3.4,0.1,5.3c0.9-0.3,1.9,0.2,2.8-0.5
				c-0.4-0.3-0.7-0.5-0.9-0.7c-0.2-1.4-0.6-2.8-0.2-4.3c0.8,0.3,1.3,0.6,2,0.9c0.1-0.1,0.2-0.2,0.2-0.2c-0.3-0.5-0.7-1-1-1.6
				C533.5,96.8,531.9,97,530.3,97.1z M543.3,95.1c0.2,0,0.3,0.1,0.5,0.1c0.4,1.6,1.9,2.8,1.2,5.1c1.1-0.4,1.9-0.8,2.9-1.3
				c-1.5-1-2.6-3-2.8-4.6c0.8-0.6,1.5,0.9,2.4,0c-0.5-0.5-0.9-1-1.4-1.5c-1.6,0.7-3,1.3-4.5,2.1c0.2,0.7,0.4,1.3,0.6,2
				C542.6,96.2,542.9,95.6,543.3,95.1z M491.1,34.6c0.4-0.4,0.8-0.7,1-1c0.5-0.8,0.4-1.9-0.1-2.5c-0.8-0.7-1.6-0.7-2.4,0
				c-0.3,0.2-0.5,0.5-0.9,0.8c-0.6,0.4-1.2,0.4-1.6-0.4c0.1-0.1,0.1-0.5,0.2-0.6c0.6-0.4,1.3-0.8,1.9-1.3c-0.5-0.7-1.1-0.6-1.7-0.5
				c-0.4,0.6-0.8,1.1-1.1,1.6c-0.4,0.8-0.3,1.5,0.3,2.2c0.6,0.7,1.3,0.7,2.2,0.2c0.5-0.3,1-0.8,1.5-1.2c0.2-0.1,0.3-0.1,0.7-0.2
				c0.2,0.4,0.4,0.7,0.8,1.2c-0.9,0.5-1.5,0.8-2.2,1.2c0,0.2,0.1,0.2,0.1,0.3C490.1,34.5,490.5,34.5,491.1,34.6z M507.9,93.4
				c-0.7,0.5-1.3,1.2-2.3,2c0.2-1.3,0.4-2.2,0.5-3c0.3-0.3,0.5-0.5,0.9-0.9c-0.9-0.5-1.6-1-2.7-1c1,1,0.5,2,0.3,3
				c-0.2,0.7-0.2,1.3-0.3,2c-0.1,0.5-0.2,1.1,0.1,1.6c2-0.9,3-3.1,5.4-3.7c-0.9-0.7-1.3-1.3-2.3-1C507.7,92.8,507.7,93.1,507.9,93.4
				z M479.5,55.4c0.1,1.7,0.2,3.1,0.4,4.4c0.7,0.4,1.3,0.9,2.2,0.3c-0.8-0.6-1.9-1-1.4-2.4c1.7-0.1,3.4-0.4,5.2,0.1
				c0-0.4,0-0.8,0-1.2c0-0.4-0.1-0.9-0.1-1.3C484.5,56.4,481.1,56.2,479.5,55.4z M545.4,16c0.8-1.6,0.8-3.5,2.7-4.4
				c-1.5-1.1-2.3-1.3-2.7-0.9c0.2,0.2,0.2,0.5,0.5,0.9c-0.3,0.7-0.6,1.6-1,2.3c-0.5,0.7-0.9,1.4-1.5,2.2c1.3,0.5,2.5,1.1,3.7,1.7
				c0.6-0.4,1.2-0.8,1.3-1.7C547.3,16.2,546.4,17,545.4,16z M481,51.4c1.7-0.1,3.4,0.1,5.2,0.9c0.1-0.9,0.2-1.6,0.2-2.5
				c-2.2,1-4,0.3-6.2-0.4c-0.2,1.5-0.2,2.8-0.4,4.3c0.7,0.2,1.1,0.9,1.9,0.5C481.2,53.3,480.2,52.7,481,51.4z M493.6,20.9
				c2.3,0.9,3.4,2.4,4.2,4.5c1.1-0.9,2.2-1.8,3.2-2.7c-0.2-0.8-0.2-1.4-1.3-2.1c0.4,1.4,0.1,2.4-1.1,2.8c-0.9-1.1-1.9-2.2-2.8-3.1
				c0-0.4,0-0.7,0-1.4C495,19.7,494.4,20.2,493.6,20.9z M526.9,103.3c1,0.1,1.8,0.3,2.6-0.2c-1-1.9-0.5-3.9-0.3-5.8
				c-0.9-0.1-1.6-0.4-2.5,0.2C527.7,98.7,527.8,101.5,526.9,103.3z M571,36.2c0.1-0.1,0.2-0.1,0.2-0.2c-0.4-0.8-0.5-1.7-1.3-2.4
				c-0.9,1.3-3.6,2.6-5.4,2.5c0.4,0.8,0.7,1.6,1.1,2.5c1.1-1.9,3-2,4.4-2.8C570.5,35.9,570.8,36,571,36.2z M483.6,36.3
				c2.4-0.1,4,0.9,5.8,2.3c0.3-0.8,0.6-1.6,0.9-2.3c-2.3,0.1-4-0.9-5.6-2.3C484.3,34.7,483.9,35.5,483.6,36.3z M549.9,97.6
				c0.1,0.2,0.1,0.2,0.3,0.3c0.8-0.5,1.6-0.7,2.2-1.6c-0.4-0.2-0.7-0.2-1.1-0.4c-0.6-1.5-2.1-2.6-1.9-4.4c-1.5,0.5-1.5,0.5-2.1,1.3
				c1.9,0.7,1.9,2.7,3.1,3.7C550.1,97.1,550,97.3,549.9,97.6z M486.8,46.3c-2.2,0.4-4,0.1-5.9-1.3c-0.2,0.9-0.3,1.6-0.5,2.5
				c2.2-0.4,4-0.1,5.9,1.3C486.4,47.9,486.6,47.1,486.8,46.3z M498.3,93.5c1,0.5,1.6,1,2.7,1.6c-0.2-0.7-0.2-1-0.3-1.3
				c0.4-0.7,0.9-1.5,1.4-2.1c0.5-0.6,1.1-1.2,1.6-1.8c-0.6-0.5-1.2-1-2.1-1.3C502,90.3,500.1,92.9,498.3,93.5z"/>
			<path class="st3" d="M513.4,18.2c0.4,3.4,2.4,6.1,3.8,9.1c-0.9,1.3-1.3,3-3,3.9c-0.4-0.8-0.8-1.6-1.2-2.3c-2.7,1.6-4.5,4-6.5,6.5
				c0.7,0.6,1.4,1.2,2.1,1.7c-0.8,1.3-1.5,2.5-2.2,3.8c-0.7-0.3-1.3-0.7-2-1c-1.3,1.4-2.7,6.4-2.3,8.5c0.6,0.1,1.3,0.1,2.1,0.3
				c0,1.3,0,2.7,0,4.1c-0.8,0.1-1.6,0.2-2.5,0.4c0.1,2.5,0.4,4.8,1.3,7.1c0.8-0.2,1.5-0.4,2.3-0.7c0.5,1.4,1.1,2.8,1.6,4.3
				c-0.7,0.5-1.3,1-2.2,1.6c1.8,3.7,3.5,7.5,5.3,11.3c-1.3,0.5-2.8,0-4.3,0.5c-0.1,0.9-0.2,1.9-0.2,3.1c-0.5-0.2-1-0.2-1.6-0.4
				c-0.2-1.9,1.3-2.8,2-4.1c-1.3-2.2-3.7-1.2-5.5-1.9c0-0.9,0-1.8,0-2.7c0.2-4.4,0.2-8.8,0.3-13.1c0-0.2,0-0.5-0.1-0.7
				c-0.4-1.3-0.4-2.7-0.4-4.1c0.1-1.9-0.4-4-0.8-5.8c-0.5-2.5-1.3-4.9-1.9-7.4c-0.2-0.7-0.3-1.3-0.8-2c-0.3,1-0.5,2-0.9,3
				c-0.9,2.9-1.9,5.8-2.7,8.8c-0.9,3.3-1.6,6.6-0.4,9.9c0.8,2.1,1.9,4,3.1,6.1c1.3,2.5,2.7,4.9,3.5,7.6c0.1,0.2,0.1,0.5,0.1,0.9
				c-1.4,0.4-3.2,0-4.2,1.9c3.1,4.2,6.7,7.9,10.9,11c5.5,4,11.7,6.2,18.4,6.6c15.1,0.9,26.2-5.9,34.9-17.5c-1-1.8-2.7-1.4-4.3-1.9
				c0.2-0.5,0.3-1,0.5-1.5c1-3.1,2.7-6,4.5-8.8c1.8-2.7,2.8-5.6,2.6-8.8c-0.1-2.2-0.7-4.5-1.4-6.6c-1.1-3.2-2.2-6.4-2.9-9.7
				c-0.1-0.2-0.1-0.5-0.3-0.8c-0.2,0.2-0.4,0.4-0.4,0.5c-0.8,3-1.6,6.1-2.3,9.1c-0.5,2.3-0.9,4.8-0.9,7.3c0,1.7-0.4,3.4-0.5,5.2
				c-0.1,0.8-0.2,1.6-0.1,2.3c0.2,3.9,0.3,7.9,0.5,11.8c-1.9,0.7-4-0.2-5.3,1.8c0.4,1.4,2,2.2,1.9,4c-0.4,0.1-0.9,0.4-1.5,0.7
				c-0.2-1.3-0.2-2.2-0.3-3.4c-1.4,0-2.7,0-4.2,0c1.6-4.1,3.8-7.7,5.2-11.8c-0.7-0.5-1.3-1-2.1-1.6c0.5-1.4,1-2.9,1.6-4.4
				c0.8,0.2,1.6,0.5,2.4,0.8c1.1-2.2,1-4.6,1.3-6.9c-0.5-0.9-1.6-0.3-2.5-0.7c0-1.3,0-2.6,0-4c0.6-0.1,1.3-0.1,1.9-0.3
				c0.4-1.9-0.9-6.8-2.3-8.5c-0.7,0.3-1.3,0.7-2,1c-0.8-1.3-1.4-2.4-2.3-3.7c0.7-0.5,1.3-1.1,2.1-1.7c-1.9-2.5-3.9-4.8-6.6-6.6
				c-0.4,0.7-0.7,1.5-1.1,2.2c-1.5-0.7-1.6-0.9-3.1-3.7c1.2-3,3.4-5.5,3.7-8.9c0.2,0,0.4-0.1,0.5,0c4.8,1.9,9.1,4.7,12.8,8.3
				c3.7,3.7,6.7,8,8.7,13c1.5,3.5,2.3,7.2,2.8,11c0.9,8-0.5,15.5-4,22.6c-5.3,10.2-13.6,17-24.7,20.1c-4.9,1.4-10.1,1.6-15.2,1
				c-4.4-0.5-8.5-1.9-12.5-3.7c-3.2-1.6-6.1-3.6-8.7-5.9c-6.6-6.1-10.8-13.6-12.4-22.5c-0.7-3.7-0.8-7.3-0.4-11
				c0.8-8,3.7-15.1,8.8-21.3C501.5,24.6,506.9,20.8,513.4,18.2z"/>
			<path class="st3" d="M535,67.2c1,3.4,1.9,6.6,3,10c-0.7,0-1.3,0-2,0c-1.1-3.1-1.4-6.4-2.3-9.7c-3.8-0.2-7.6,0-11.6-0.2
				c-0.8,3.4-1.4,6.6-2.2,9.9c-0.8,0-1.4,0-2.3,0c1-3.4,1.9-6.6,2.9-9.7c-1.6-0.8-3-1.4-4.3-2.2c-2.1-1.3-3.4-3.4-4.1-5.7
				c-1.9-6.3-1.6-12.5,1.9-18.3c0.9-1.4,2.2-2.5,3.4-3.6c1,2.5,2.1,4.8,3.1,7.2c0.9-0.1,1-0.7,1-1.3c0-1-0.1-2.2,0-3.2
				c0.2-1.6,0.2-3.1,0.4-4.6c0.6-3.1,0.2-6-1-8.8c-1.3-3.2-2.7-6.5-4-9.8c7.3-2,14.4-2,21.7,0c-0.5,1.7-1.3,3.4-1.9,4.9
				c-1.3,3.1-2.8,6.1-3.4,9.4c-0.2,0.7-0.2,1.6,0,2.3c0.5,3,0.9,5.9,0.8,9c-0.1,0.7-0.2,1.5,0.8,2.1c1.1-0.9,0.9-2.3,1.6-3.4
				c0.7-1.1,1.1-2.3,1.6-3.7c1.1,0.5,1.9,1.3,2.6,2.2c2.5,3.1,3.7,6.9,4,10.9c0.1,3.4-0.2,6.6-1.6,9.7c-1.3,3-3.4,5-6.6,6.1
				C536.1,66.8,535.5,67.1,535,67.2z"/>
			<path class="st3" d="M516.4,16.4c-1.3-3-2.7-6-4.1-9.2C522.5,4,532.6,3.9,543,7.2c-1.4,3.1-2.8,6.1-4.1,9.1
				C531.3,14.3,523.9,14.3,516.4,16.4z M522.7,8.9c-0.2,1.6,0.8,2.8-0.5,4.3c1.2-0.1,1.9-0.1,3-0.3c-0.4-0.5-0.7-0.8-1-1.2
				c0.2-1.6-1-3.2,0.2-4.8c-0.8-0.5-1.3-0.1-2,0.1c-0.4,1.3-0.8,2.5-1.2,4c-0.8-1.4-1.4-2.6-1.9-3.7c-1.3-0.1-1.3-0.1-2,0.3
				c1,1.9,1.4,3.7,0.5,5.9c0.8-0.1,1.5-0.1,2.5-0.2c-1-1.1-1.3-2.2-1.1-3.4c0.9,1,0.9,2.4,2,3.2C522.2,12.2,522,10.5,522.7,8.9z
				 M531.3,8.6c0.2-0.1,0.2-0.1,0.4-0.3c-0.2-0.5-0.5-1-0.8-1.4c-1.6,0-2.8,0-4.3,0c0.9,2,0.8,4-0.1,6.1c1.6,0.1,3,0.1,4.5,0
				c0.2-0.6,0.5-1.1,0.8-1.9c-1.3,0.1-1.9,1.7-3.2,0.8c0-0.5,0.1-1.1,0.1-1.9c0.5,0.4,0.9,0.7,1.6,1.1c0-1,0-1.7,0-2.5
				c-0.5,0.2-0.9,0.4-1.5,0.7c0-0.6,0-1.1,0-1.5C529.8,7.3,530.4,8.2,531.3,8.6z M534.3,12.2c0.2-0.3,0.4-0.5,0.7-0.9
				c0.5,0.1,1,0.4,1.6,0.6c-0.2,0.6-0.5,1-0.8,1.6c0.8,0.5,1.6,0.7,2.7,0.5c-1.5-2-0.6-4.4-1.6-6.4c-0.8-0.3-1,0.3-1.3,0.7
				c-1.1,1.5-1.6,3.4-3.4,4.5c1,0.2,1.6,0.4,2.7,0.6C534.6,12.8,534.4,12.6,534.3,12.2z"/>
			<path class="st3" d="M516.6,77.3c-1.9,0.1-3.7,0.1-5.6,0c0.4-0.9,0.6-1.4,0.9-2.1c1.3,0,2.4,0,3.7,0
				C515.9,75.8,516.3,76.4,516.6,77.3z"/>
			<path class="st3" d="M543.4,75.1c0.3,0.7,0.5,1.3,0.9,2.1c-1.9,0.1-3.7,0.1-5.8,0.1c0.5-0.9,0.9-1.5,1.3-2.2
				C541,75.1,542.1,75.1,543.4,75.1z"/>
			<path class="st4" d="M537,26c0.4-2.9,1.6-5.6,2.5-8.4c0.3,0.1,0.5,0,0.8,0.1c0.2,0.1,0.4,0.2,0.5,0.4
				C539.1,20.5,537.9,23.2,537,26z"/>
			<path class="st4" d="M518.3,26c-1.3-4-1.7-4.9-3.9-8.2c0.4-0.1,0.7-0.3,1.3-0.5C516.8,20.3,518,23,518.3,26z"/>
			<path class="st2" d="M524,71.9c1.9-3.2,4.9-4,7.5,0C528.9,70.1,527.8,68.8,524,71.9z"/>
			<path class="st2" d="M531.3,74.3c-0.4-0.2-0.8-0.4-1.2-0.7c-1.9-1.3-2.9-1.3-4.8,0c-0.5,0.3-0.9,0.7-1.6,0.9
				c0.8-0.7,1.6-1.5,2.4-2c1.3-0.9,2.5-0.7,3.7,0.4C530.4,73.2,530.8,73.7,531.3,74.3L531.3,74.3z"/>
			<path class="st2" d="M531,76.7c-0.4-0.1-0.8-0.3-1.1-0.5c-1.5-1.1-3-0.9-4.4,0c-0.3,0.1-0.7,0.4-1.1,0.5l0,0
				c0.5-1.3,1.7-1.7,2.9-2.2C528.9,74.6,530.1,75.3,531,76.7L531,76.7z"/>
			<path class="st2" d="M531.3,74.3c0.1,0,0.1,0.1,0.2,0.1C531.4,74.3,531.3,74.3,531.3,74.3L531.3,74.3z"/>
			<path class="st2" d="M524.4,76.7c-0.1,0.2-0.2,0.2-0.4,0.4l0,0C524.2,76.9,524.4,76.8,524.4,76.7L524.4,76.7z"/>
			<path class="st2" d="M523.4,77.6l-0.1,0.1L523.4,77.6z"/>
			<path class="st2" d="M531.6,77.3c0.1,0,0.1,0.1,0.2,0.1C531.7,77.4,531.7,77.3,531.6,77.3L531.6,77.3z"/>
			<path class="st2" d="M523.4,77.6c0.2-0.1,0.2-0.2,0.4-0.3l0,0C523.7,77.5,523.5,77.6,523.4,77.6L523.4,77.6z"/>
			<path class="st2" d="M531.6,77.3c-0.1-0.1-0.2-0.2-0.3-0.4l0,0C531.4,77.1,531.5,77.2,531.6,77.3L531.6,77.3z"/>
			<path class="st2" d="M524.1,77c-0.1,0.1-0.2,0.2-0.4,0.4l0,0C523.9,77.2,524.1,77.1,524.1,77L524.1,77z"/>
			<path class="st2" d="M531,76.7c0.1,0.2,0.2,0.2,0.4,0.4l0,0C531.2,76.8,531.1,76.7,531,76.7L531,76.7z"/>
			<path class="st1" d="M482.4,71.1c-0.2-0.7-0.5-1.3-0.9-2.3c2,0.7,3.4-0.4,5-0.9c0.1-0.3,0.3-0.7,0.5-1c0.8,0.5,0.8,1.3,1.2,1.9
				c-1.1,0.9-2.2,1.9-3.2,2.8c1.4,0.1,2.7,0.1,4.1,0.2c0.3,0.7,0.5,1.3,0.9,2.2c-0.8-0.3-1.2-0.5-1.6-0.7c-1.2,0.5-2.4,0.9-3.7,1.5
				c-0.1,0.3-0.2,0.6-0.4,1c-0.9-0.6-0.6-1.6-1-2.3c1.1-0.3,2.2-0.5,3.5-0.9c-1.6-0.4-2.8,0.1-4-0.5c0.5-1.3,1.9-1.7,2.7-2.8
				C484,69.6,483.6,69.8,482.4,71.1z"/>
			<path class="st1" d="M573.3,70.1c-0.2,1.3-0.7,1.9-1.1,2.8c-0.9-0.8-1.9-0.7-2.9,0c0.5,0.3,1,0.5,1.3,0.8
				c0.5-0.1,0.8-0.3,1.1-0.4c0.1,0.1,0.2,0.1,0.2,0.2c-0.4,0.8-0.8,1.6-1.3,2.7c-0.4-1.5-1.4-1.8-2.4-2.3c-0.9-0.4-1.7-1.1-3-0.6
				c0.3-0.7,0.7-1.5,1-2.2c0.6,0.5,1.1,0.9,1.6,1.3c0.1-0.1,0.2-0.2,0.2-0.2c-0.1-0.5-0.4-1-0.5-1.6c-0.4-0.1-0.7-0.2-1.1-0.2
				c0.5-0.8,0.5-1.8,1.3-2.4c0.2,1,0.5,1.9,0.8,2.9C570.3,71.2,571.7,71.1,573.3,70.1z"/>
			<path class="st1" d="M571,48.2c1.3-0.1,2.5-0.2,3.7-1.5c0.2,0.9,0.4,1.6,0.5,2.3c-2.2-0.5-4,0.1-5.9,1c-0.2-0.3-0.3-0.7-0.5-1.3
				c1-1.2,1.9-2.3,2.9-3.4l0.1-0.1l-0.1,0.1c-1.1,0.1-2.4-0.1-3.1,1.7c-0.3-1.2-0.5-1.8-0.7-2.8c0.5,0.2,0.8,0.4,1.1,0.5
				c1.6-0.1,3.2-1,5.2-0.8C573.4,45.9,572,47,571,48.2c0,0.1-0.1,0.1-0.1,0.1C570.9,48.3,570.9,48.2,571,48.2z"/>
			<path class="st1" d="M562.8,88.1c-1.1-2.2-2.6-3.4-4.8-4.1c0.8-0.8,1.4-1.6,2.1-2.2c1.3-1.3,2.3-1.3,3.7-0.2
				c1.3,0.9,1.7,2.7,0.9,4C564.3,86.3,563.6,87.1,562.8,88.1z M563.3,85.9c0.9-0.3,1.1-0.9,0.9-1.6c-0.4-1.4-1.4-2.1-2.9-2.3
				c-0.4,0.3-0.8,0.6-1.3,1.1C561.2,83.9,562.2,85,563.3,85.9z"/>
			<path class="st1" d="M514.5,101.6c1.2-1.9,1.7-3.7,1.2-6.1c1.7,0.5,4.4,0.3,4.4,2.7c-0.5,0.5-1,1.1-1.6,1.7
				c0.3,0.8,0.7,1.6,1.1,2.6c-0.5,0-1,0-1.6,0c-0.4-1-0.7-1.9-1.1-3.1c-0.5,1-0.4,1.7,0.2,2.5C516.2,102.1,515.3,102,514.5,101.6z
				 M516.9,98.7c0.9,0.1,1.5,0.1,1.6-0.7c0.2-0.7-0.2-1.2-1.1-1.1C517.3,97.4,517.2,98,516.9,98.7z"/>
			<path class="st1" d="M570.9,57.2c0.5,0.4,1.1,0.8,1.7,1.3c1-0.1,1.8-0.7,2.4-1.6c0.8,0.7,0.1,1.3,0.1,1.9
				c-0.9,0.4-1.6,0.7-2.4,1.1c1,0.5,1,0.5,2.1,0c0.4,1,0.4,1-0.2,2.6c-0.2-0.1-0.4-0.1-0.5-0.3c-0.2-0.1-0.2-0.2-0.3-0.5
				c-1.6,0.1-3.2-1-4.9,0.1C568.8,59.2,568.8,57.6,570.9,57.2z M571.5,60.1c0.1-1.3-0.1-1.6-0.8-1.6c-0.8,0.1-1,0.5-0.8,1.4
				C570.4,60.1,570.9,60.1,571.5,60.1z"/>
			<path class="st1" d="M496.7,86.9c-0.4,0.3-1,0.6-1.3,1c-0.4,0.4-0.7,1-1.1,1.6c-0.7-0.2-0.9-0.8-1.5-1.4c2.1-0.1,2.7-1.9,4-2.7
				c0.2-0.5,0.2-0.9,0.3-1.3c0.8,0.1,0.9,0.8,1.3,1.3c-0.3,1.4-0.6,2.8-0.9,4.4c0.9-1,2.1-1.5,2.2-3.2c0.6,0.6,1.1,1.1,1.7,1.7
				c-2.2,0.7-3.3,2.6-5.2,3.7C495.9,90.2,496.9,88.6,496.7,86.9c0-0.1,0.1-0.1,0.1-0.1S496.8,86.9,496.7,86.9z"/>
			<path class="st1" d="M559,19.4c1.2-0.1,1.6,0.8,2.3,1.6c-1.1,0.1-2.1,0.4-3.2,0.5c-0.2,1.3-0.4,2.6-0.5,3.9
				c-0.8-0.2-1.3-0.9-2-1.5c0.4-0.2,0.7-0.5,1-0.7c0-0.4,0-0.7,0-1.3c-0.6,0.5-1.1,0.9-1.6,1.3c-0.5-0.3-1.1-0.7-1.3-1.3
				c1.1-0.2,2.1-0.5,3.3-0.8c0.2-1.2,0.2-2.3,0.4-3.5C558.1,17.9,558.9,18.3,559,19.4c-0.2,0-0.3,0-0.5-0.1c0,0.3,0,0.6,0,1
				c0.3-0.1,0.5-0.1,0.8-0.1C559.2,20,559.1,19.7,559,19.4z"/>
			<path class="st1" d="M507.7,99.1c2-1,2-2.8,3-4.1c-0.2-0.4-0.2-0.7-0.5-1.3c1.6,0.2,2.9,0.9,4.3,1.5c-0.1,0.6-0.2,1.2-0.2,2
				c-1-0.7-1.1-2.1-2.5-1.9c-0.1,0.3-0.4,0.8-0.8,1.5c0.9-0.1,1.4-0.1,2-0.1c-0.4,0.8-0.6,1.5-1,2.5c-0.3-0.7-0.4-1-0.6-1.4
				c-1,0.2-1,0.9-1.3,1.6c0.5,0.3,0.9,0.5,1.3,0.7c0.7-0.2,1.3-0.4,1.9-0.6c0.1,1-0.8,1.2-1.1,1.8
				C510.8,100.4,509.4,99.8,507.7,99.1z"/>
			<path class="st1" d="M507.7,11.6c0.5-0.9,1.3-1.1,2.3-1.3c-0.3,1.1-0.6,2-0.9,3.1c1.2,0.7,2.3,1.4,3.4,2.2
				c-0.5,0.7-1.3,0.9-2.2,1.3c-0.1-0.8-0.4-1.6-1.3-1.7c-0.1,0.4-0.1,0.9-0.1,1.3c0.2,0.1,0.5,0.4,0.9,0.7c-0.8,0.4-1.4,0.7-2.3,1.1
				c0.3-1.4,0.5-2.6,0.8-4c-1.1-0.5-2.1-1-3.2-1.6C505.8,12.1,506.6,11.4,507.7,11.6c-0.2,0.5-0.2,0.9,0.5,1.2
				c0.1-0.3,0.2-0.7,0.2-1C508.1,11.6,507.9,11.6,507.7,11.6z"/>
			<path class="st1" d="M572.4,53.9c0.9,0,1.5,0,2,0c0.8-1.3-0.4-1.9-1.1-2.8c1-0.1,1-0.1,2,0.4c0.5,1.3,0.2,2.8,0.2,4.5
				c-1.6-1.3-3.3-0.1-4.7-0.7c-0.4,0.3-0.8,0.5-1.3,0.9c0-1.6,0-3.1,0-4.6c0.4-0.1,0.9-0.3,1.6-0.5c-0.2,1.2-1.5,1.6-0.7,3
				c0.3,0,0.8,0.1,1.4,0.1c-0.2-0.6-0.4-1-0.7-1.6c0.8,0,1.5,0,2.4,0C573,52.9,572.8,53.2,572.4,53.9z"/>
			<path class="st1" d="M551.7,14.8c-0.1-0.5-0.1-0.9-0.2-1.5c1.6,0.5,2.5,1.6,3.8,2.3c0.1,0.6,0,1.2-0.5,1.9
				c-0.7-0.9-0.7-2-1.9-2.4c-0.2,0.4-0.5,0.9-1,1.7c0.9-0.1,1.3-0.2,1.9-0.3c-0.2,1-0.7,1.6-1.4,2.3c-0.1-0.6-0.3-1-0.5-1.9
				c-0.5,0.8-0.9,1.3-1.3,1.8c0.8,1.3,1.9,0.9,3.3,0.9c-0.8,0.6-1.1,0.9-1.6,1.3c-1.3-0.9-2.5-1.6-3.7-2.5
				C550.3,17.6,550.8,16.1,551.7,14.8z"/>
			<path class="st1" d="M482.5,41.3c0.5,1.2,1.3,0.3,2.2,0.1c-0.1,1-0.3,1.9-0.8,2.6c-0.9-0.5-1.6-1-2.3-1.6
				c0.1-2.3,0.8-3.6,2.3-3.9c1.9-0.4,3.4,0.6,4.3,3c-0.2,0.7-0.5,1.5-0.8,2.3c-0.6,0.2-1.3,0.4-1.9-0.1c1.6-1.3,1.6-1.3,1.3-3
				c-0.9-0.4-1.9-0.7-2.8-1.1C482.9,40.4,482.9,40.4,482.5,41.3z"/>
			<path class="st1" d="M487.2,65.8c-1.1,0.1-1.9,0.1-2.7,0.3c-0.5,0.1-1.1,0.3-1.6,0.4c-1.3,0.1-2-0.3-2.4-1.8
				c-0.3-1.2,0.2-2.1,1.3-2.6c0.5-0.2,1.2-0.3,1.8-0.5c0.7-0.3,1.5-0.6,2.4-1c0.2,0.6,0.4,1.4,0.7,2.5c-0.7-0.2-1.1-0.4-1.6-0.6
				c-1.1,0.4-2.3,0.7-3.6,1.1c-0.1,0.5-0.2,1-0.2,1.3c0.7,1,3.7,0.4,5.3-1C486.9,64.6,487.1,65.1,487.2,65.8z"/>
			<path class="st1" d="M568.1,64.7c1.1-0.1,2.2-0.3,3.2-0.4c1-0.1,2.1-0.2,3.3-0.4c-0.1,0.7-0.1,1.5-0.4,2.7
				c-0.5-0.5-0.7-0.7-0.9-1c-0.3,0.1-0.7,0.1-1.1,0.2c-0.2,0.5-0.2,0.9-0.3,1.3c0.5,0.8,1.2,0.5,1.9,0.1c0.1,0.9-0.1,1.6-0.6,2.4
				c-1.1-1.6-2.8-2.3-4.3-3.3C568.4,66.1,567.6,65.8,568.1,64.7z M569.5,65.8c0.7,0.4,1.1,0.6,1.6,0.9c0-0.4,0.1-0.5,0.1-0.9
				C570.7,65.8,570.3,65.8,569.5,65.8z"/>
			<path class="st1" d="M539.2,95.5c1.2,1.9,2.3,3.7,3.6,5.8c-0.7,0.2-1.6,0.4-2.6,0.5c0.4-0.9,0.9-1.5-0.1-2
				c-0.5,0.1-0.9,0.2-1.3,0.3c-0.8,0.9,0.2,1.2,0.5,1.7c-0.8,0.4-1.5,0.7-2.3,0.4c0.7-1.6,0.8-3.4,0.9-5.2
				C538.2,96.3,538.1,95.6,539.2,95.5z M539.2,97.7c-0.2,0-0.2,0-0.3,0.1c0,0.4,0.1,0.8,0.1,1.3c0.3-0.1,0.5-0.3,0.8-0.4
				C539.5,98.3,539.4,98,539.2,97.7z"/>
			<path class="st1" d="M503.1,20.8c-1.3-0.2-1.8-1.2-2.4-1.9c-0.5-0.8-0.9-1.7-2.5-1.8c1-0.7,1.6-1.3,2.5-1.9
				c-0.1,0.7-0.1,1-0.1,1.4c0.9,1,1.3,2.5,2.8,3.3c0.4-0.3,0.9-0.6,1.4-1c-0.6-1.8-1.5-3.1-3.2-4c0.1-0.9,1.1-0.9,1.7-1.5
				c-0.2,1.3,0.4,1.9,1.1,2.7c0.1,0.1,0.1,0.1,0.2,0.1C506.4,18.5,505.9,20,503.1,20.8z"/>
			<path class="st1" d="M495.1,81.7c0.5,0.9,0.9,1.5,1.6,2.4c-1.3-0.4-1.9,0.1-2.7,0.6c-0.5,0.4-1,0.8-1.6,1
				c-1.1,0.5-2.2,0.2-2.8-0.7c-0.7-1.1-0.7-1.9,0.3-2.9c0.4-0.4,0.9-0.7,1.3-1.1c0.6-0.5,1.2-1.2,1.9-1.9c0.7,0.2,0.9,1.2,1.6,2
				c-0.6,0-1,0-1.6,0c-0.9,0.6-1.8,1.3-2.7,1.9c-0.4,0.7-0.4,1.3,0.1,1.8c0.5,0.4,1.1,0.1,1.6-0.1C493.3,84,494.6,83.6,495.1,81.7z"
				/>
			<path class="st1" d="M563.1,76.4c2.7-0.4,4.8,1,7.3,0.5c-0.5,0.9-0.9,1.6-1.3,2.3c-0.6-0.5-1.1-0.9-1.7-1.3
				c-0.4,0.6-0.6,1-0.9,1.3c0.1,1.1,1,1,1.9,0.8c-0.5,0.9-0.9,1.6-1.6,2.5C566.7,79.9,564,78.9,563.1,76.4z M566.6,77.9
				c-0.6-0.1-1-0.1-1.6-0.1c0.4,0.5,0.8,0.8,1.1,1.2C566.1,78.5,566.4,78.3,566.6,77.9z"/>
			<path class="st1" d="M562.3,31.6c0.3-0.2,0.8-0.5,1.3-0.9c0.5,0.9-0.6,2,0.7,2.7c0.2-0.1,0.5-0.4,0.9-0.6
				c-0.1-0.7-0.2-1.4-0.2-2.1c0-1,0.4-1.6,1.3-1.9c0.8-0.2,1.6,0.1,2.2,1c0.3,0.5,0.6,1.2,0.9,1.9c-0.4,0.4-0.9,0.8-1.3,1.3
				c-0.7-1.1,0.9-3-1.6-3.1c-0.1,0.5-0.2,0.9-0.2,1.4c0,0.4,0.2,0.9,0.2,1.3c0,0.9-0.5,1.6-1.5,1.8c-0.7,0.1-1.4-0.2-1.9-0.9
				C562.8,33,562.6,32.4,562.3,31.6z"/>
			<path class="st1" d="M554.2,95.5c-0.3-0.2-0.6-0.4-0.9-0.7c-0.1-0.2-0.1-0.2-0.4-0.6c0.9-0.1,1.6-0.1,2.5-0.2
				c0.2-0.4,0.2-0.8,0.3-1.2c-0.2-0.1-0.4-0.3-0.5-0.3c-0.5,0.1-1.1,0.2-1.7,0.2c-1.2,0.2-1.9-0.1-2.2-1c-0.4-1,0-1.9,1-2.4
				c0.4-0.1,0.8-0.4,1.3-0.5c0.5,0.4,1.2,0.5,1.1,1.3c-2.2,0-2.2,0-2.5,1c0.8,0.5,1.5,0.2,2.2,0.1c1.2-0.2,1.9,0,2.3,0.9
				c0.5,0.9,0.2,1.8-0.8,2.5C555.3,94.9,554.7,95.1,554.2,95.5z"/>
			<path class="st1" d="M570.9,37.7c1.9,0.4,1.9,2,2.3,3.4c-0.5,0.3-1,0.7-1.8,1.2c0.2-1.2,0.5-2,0.6-3c-0.4-0.1-0.8-0.4-1.1-0.5
				c-0.9,0.7-0.5,1.6-0.6,2.3c-0.1,1.3-0.9,1.9-2.1,1.8c-0.8-0.1-1.3-0.6-1.4-1.3c-0.1-0.5-0.1-1-0.2-1.6c0.5-0.3,0.9-0.6,1.4-1
				c0.5,1-1.2,2.1,0.2,3c0.9-0.1,0.7-0.8,0.7-1.4C569.1,38.8,569.4,38.4,570.9,37.7z"/>
			<path class="st1" d="M525,97.4c0.2,0.5,0.2,0.9,0.4,1.3c-0.1,0.1-0.1,0.1-0.2,0.1c-0.6-0.4-1.3-0.9-2-1.4
				c-0.3,0.4-0.5,0.7-0.9,1.3c0.8,0.4,1.6,0.6,2.1,1c0.5,0.4,0.9,1,1.2,1.4c-0.8,2.2-1.1,2.3-4,1.7c-0.2-0.5-0.4-1.1-0.7-1.9
				c1.3,0.3,1.9,2.2,3.4,1c0-0.5-0.3-1-0.9-1.3c-0.3-0.1-0.6-0.2-0.9-0.4c-1-0.5-1.3-1.3-1-2.2c0.4-1,1.3-1.4,2.3-1.2
				C524.2,97,524.5,97.1,525,97.4z"/>
			<path class="st1" d="M530.3,97.1c1.7-0.1,3.1-0.3,4.8-0.5c0.4,0.5,0.8,1,1,1.6c-0.1,0.1-0.2,0.1-0.2,0.2c-0.7-0.3-1.3-0.5-2-0.9
				c-0.4,1.6,0.1,2.9,0.2,4.3c0.2,0.2,0.5,0.5,0.9,0.7c-1,0.7-1.9,0.1-2.8,0.5c0.9-1.8,0.5-3.4-0.1-5.3c-0.5,0.2-0.8,0.4-1.1,0.6
				c-0.2,0.1-0.4,0.5-0.7,0.8C529.8,98.6,530.4,98,530.3,97.1z"/>
			<path class="st1" d="M543.3,95.1c-0.3,0.5-0.7,1.1-1.2,1.9c-0.2-0.8-0.5-1.3-0.6-2c1.6-0.7,3-1.3,4.5-2.1
				c0.5,0.5,0.9,0.9,1.4,1.5c-0.9,0.9-1.7-0.6-2.4,0c0.1,1.7,1.3,3.7,2.8,4.6c-1,0.4-1.8,0.7-2.9,1.3c0.8-2.2-0.8-3.4-1.2-5.1
				C543.6,95.2,543.4,95.2,543.3,95.1z"/>
			<path class="st1" d="M491.1,34.6c-0.5-0.1-0.9-0.1-1.4-0.1c0-0.1-0.1-0.1-0.1-0.3c0.6-0.4,1.3-0.7,2.2-1.2
				c-0.3-0.5-0.5-0.8-0.8-1.2c-0.4,0.1-0.5,0.1-0.7,0.2c-0.5,0.4-0.9,0.9-1.5,1.2c-0.9,0.5-1.6,0.4-2.2-0.2
				c-0.6-0.7-0.8-1.3-0.3-2.2c0.3-0.5,0.7-1,1.1-1.6c0.6-0.1,1.3-0.2,1.7,0.5c-0.7,0.4-1.3,0.8-1.9,1.3c-0.1,0.1-0.1,0.4-0.2,0.6
				c0.4,0.7,1,0.7,1.6,0.4c0.3-0.1,0.5-0.5,0.9-0.8c0.9-0.7,1.6-0.7,2.4,0c0.7,0.7,0.8,1.6,0.1,2.5
				C491.7,33.9,491.4,34.2,491.1,34.6z"/>
			<path class="st1" d="M507.9,93.4c-0.1-0.4-0.1-0.6-0.3-0.9c1-0.2,1.6,0.5,2.3,1c-2.4,0.5-3.4,2.8-5.4,3.7c-0.5-0.5-0.2-1-0.1-1.6
				c0.1-0.7,0.1-1.3,0.3-2c0.1-1,0.7-2-0.3-3c1.1,0.1,1.8,0.5,2.7,1c-0.4,0.3-0.6,0.5-0.9,0.9c-0.1,0.8-0.3,1.6-0.5,3
				C506.5,94.6,507.2,94,507.9,93.4z"/>
			<path class="st1" d="M479.5,55.4c1.6,0.9,4.9,1,6.2-0.1c0.1,0.5,0.1,0.9,0.1,1.3c0,0.4,0,0.8,0,1.2c-1.8-0.5-3.5-0.2-5.2-0.1
				c-0.4,1.3,0.6,1.8,1.4,2.4c-0.9,0.5-1.4,0.1-2.2-0.3C479.7,58.4,479.7,57,479.5,55.4z"/>
			<path class="st1" d="M545.4,16c1,1,2,0.1,3,0.1c-0.1,0.9-0.6,1.3-1.3,1.7c-1.3-0.5-2.5-1.2-3.7-1.7c0.5-0.8,1-1.5,1.5-2.2
				c0.4-0.7,0.7-1.6,1-2.3c-0.2-0.4-0.3-0.7-0.5-0.9c0.4-0.5,1.2-0.1,2.7,0.9C546.3,12.5,546.2,14.4,545.4,16z"/>
			<path class="st1" d="M481,51.4c-0.7,1.3,0.2,1.9,0.8,2.7c-0.9,0.4-1.3-0.2-1.9-0.5c0.1-1.4,0.2-2.8,0.4-4.3
				c2.1,0.7,4,1.3,6.2,0.4c-0.1,0.9-0.2,1.7-0.2,2.5C484.3,51.5,482.7,51.2,481,51.4z"/>
			<path class="st1" d="M493.6,20.9c0.8-0.7,1.4-1.3,2.3-1.9c0,0.7,0,1,0,1.4c0.9,1,1.8,2.1,2.8,3.1c1.3-0.4,1.4-1.4,1.1-2.8
				c1.1,0.7,1.2,1.3,1.3,2.1c-1.1,0.9-2.1,1.7-3.2,2.7C497.1,23.3,495.9,21.8,493.6,20.9z"/>
			<path class="st1" d="M526.9,103.3c0.9-1.9,0.8-4.6-0.2-5.8c0.9-0.5,1.7-0.3,2.5-0.2c-0.2,1.9-0.7,4,0.3,5.8
				C528.7,103.6,527.9,103.4,526.9,103.3z"/>
			<path class="st1" d="M571,36.2c-0.3-0.1-0.5-0.3-0.9-0.5c-1.4,0.7-3.3,0.9-4.4,2.8c-0.4-1-0.8-1.6-1.1-2.5
				c1.8,0.1,4.4-1.2,5.4-2.5c0.8,0.7,0.9,1.6,1.3,2.4C571.2,36,571.2,36.1,571,36.2z"/>
			<path class="st1" d="M483.6,36.3c0.4-0.9,0.8-1.6,1.1-2.3c1.6,1.5,3.3,2.5,5.6,2.3c-0.3,0.8-0.6,1.6-0.9,2.3
				C487.7,37.2,486,36.3,483.6,36.3z"/>
			<path class="st1" d="M549.9,97.6c0.1-0.3,0.2-0.5,0.4-0.9c-1.1-1.2-1.3-3.1-3.1-3.7c0.6-0.9,0.6-0.9,2.1-1.3
				c-0.2,1.9,1.3,3,1.9,4.4c0.4,0.1,0.7,0.2,1.1,0.4c-0.5,0.9-1.5,1.1-2.2,1.6C550,97.7,549.9,97.7,549.9,97.6z"/>
			<path class="st1" d="M486.8,46.3c-0.1,0.8-0.3,1.6-0.5,2.4c-1.9-1.3-3.7-1.6-5.9-1.3c0.1-0.9,0.3-1.6,0.5-2.5
				C482.7,46.4,484.6,46.7,486.8,46.3z"/>
			<path class="st1" d="M498.3,93.5c1.8-0.6,3.6-3.3,3.4-4.9c0.9,0.1,1.5,0.7,2.1,1.3c-0.6,0.6-1.3,1.2-1.6,1.8
				c-0.5,0.7-0.9,1.4-1.4,2.1c0.1,0.3,0.1,0.6,0.3,1.3C500,94.6,499.3,94.1,498.3,93.5z"/>
			<path class="st1" d="M522.7,8.9c-0.8,1.6-0.5,3.1-1.6,4.4c-1.1-0.9-1.2-2.2-2-3.2c-0.2,1.3,0.1,2.3,1,3.4c-1,0.1-1.6,0.1-2.5,0.2
				c0.9-2.2,0.5-4-0.4-5.9c0.6-0.4,0.6-0.4,1.9-0.3c0.5,1.1,1.3,2.3,1.9,3.7c0.5-1.5,0.8-2.7,1.2-4c0.7-0.1,1.3-0.7,2-0.1
				c-1.2,1.6-0.1,3.1-0.2,4.8c0.3,0.4,0.5,0.7,1,1.2c-1.1,0.1-1.8,0.1-3,0.3C523.5,11.8,522.5,10.5,522.7,8.9z"/>
			<path class="st1" d="M531.3,8.6c-0.8-0.4-1.4-1.3-2.5-0.9c0,0.4,0,0.9,0,1.5c0.5-0.2,1-0.4,1.5-0.7c0,0.8,0,1.6,0,2.5
				c-0.5-0.4-0.9-0.7-1.6-1.1c-0.1,0.8-0.1,1.4-0.1,1.9c1.3,1,1.9-0.6,3.2-0.8c-0.3,0.7-0.5,1.3-0.8,1.9c-1.6,0.1-3,0.1-4.5,0
				c0.9-2.1,1-4,0.1-6.1c1.4,0,2.7,0,4.3,0c0.2,0.4,0.5,0.9,0.8,1.4C531.5,8.3,531.4,8.5,531.3,8.6z"/>
			<path class="st1" d="M534.3,12.2c0.1,0.4,0.3,0.7,0.6,1.3c-1-0.2-1.7-0.4-2.7-0.6c1.9-1.2,2.4-3,3.4-4.5c0.3-0.4,0.5-1,1.3-0.7
				c0.9,1.9,0.2,4.4,1.6,6.4c-1.1,0.1-1.9,0.1-2.7-0.5c0.2-0.5,0.5-1,0.8-1.6c-0.6-0.2-1.1-0.4-1.6-0.6
				C534.7,11.6,534.5,11.9,534.3,12.2z M536,9.3c-0.3,0.5-0.5,0.8-0.8,1.2c0.4,0.1,0.6,0.2,1,0.4C536.1,10.4,536.1,10,536,9.3z"/>
			<path class="st2" d="M571,48.2c0,0.1-0.1,0.1-0.1,0.1C570.9,48.3,570.9,48.3,571,48.2L571,48.2z"/>
			<path class="st2" d="M571.7,45.5l0.1-0.1L571.7,45.5z"/>
			<path class="st2" d="M496.7,86.9c0-0.1,0.1-0.1,0.1-0.1S496.8,86.9,496.7,86.9L496.7,86.9z"/>
			<g>
				<path class="st4" d="M563.3,85.9c-1.1-0.9-2.1-1.9-3.2-2.9c0.5-0.4,0.9-0.8,1.3-1.1c1.5,0.2,2.5,0.9,2.9,2.3
					C564.4,85,564.2,85.6,563.3,85.9z"/>
				<path class="st4" d="M516.9,98.7c0.2-0.7,0.4-1.3,0.5-1.8c0.9,0,1.3,0.4,1.1,1.1C518.4,98.9,517.8,98.8,516.9,98.7z"/>
				<path class="st4" d="M571.5,60.1c-0.5-0.1-1-0.1-1.6-0.1c-0.2-0.9-0.1-1.3,0.8-1.4C571.3,58.5,571.5,58.8,571.5,60.1z"/>
				<path class="st4" d="M559,19.4c0.1,0.2,0.1,0.5,0.3,0.9c-0.3,0.1-0.5,0.1-0.8,0.1c0-0.4,0-0.7,0-1
					C558.7,19.4,558.9,19.4,559,19.4L559,19.4z"/>
				<path class="st4" d="M507.7,11.6c0.2,0,0.4,0.1,0.8,0.1c-0.1,0.4-0.1,0.7-0.2,1C507.6,12.5,507.4,12.2,507.7,11.6L507.7,11.6z"
					/>
				<path class="st4" d="M569.5,65.8c0.8,0,1.2,0,1.7,0c0,0.3,0,0.5-0.1,0.9C570.6,66.5,570.3,66.2,569.5,65.8z"/>
				<path class="st4" d="M539.2,97.7c0.2,0.3,0.3,0.5,0.5,0.9c-0.2,0.1-0.4,0.2-0.8,0.4c0-0.5-0.1-0.9-0.1-1.3
					C539,97.7,539.1,97.7,539.2,97.7z"/>
				<path class="st4" d="M566.6,77.9c-0.2,0.5-0.4,0.7-0.6,1c-0.4-0.4-0.6-0.7-1.1-1.2C565.5,77.8,566,77.9,566.6,77.9z"/>
				<path class="st4" d="M536,9.3c0.1,0.6,0.2,1,0.2,1.6c-0.4-0.1-0.6-0.2-1-0.4C535.5,10.1,535.7,9.8,536,9.3z"/>
			</g>
		</g>
		<g>
			<path class="st5" d="M618.2,13.8h23.9c7.3,0,12.9,0.6,16.9,1.8c4,1.2,7.4,4,10.1,8.2c2.7,4.3,4.1,9.6,4.1,15.9
				c0,6-1.1,11.2-3.3,15.1c-2.2,4-5.3,6.8-9.1,8.6c-3.9,1.8-9.8,2.6-17.9,2.6h-6.4v30.8h-18.2L618.2,13.8L618.2,13.8z M636.5,27.2
				v24.6h5.7c5,0,8.2-1.2,9.7-3.5c1.4-2.3,2.2-5.3,2.2-9c0-3.1-0.5-5.7-1.7-7.6c-1.1-1.9-2.4-3.2-3.9-3.7c-1.5-0.5-3.6-0.9-6.2-0.9
				L636.5,27.2L636.5,27.2z"/>
			<path class="st5" d="M711.1,52.5h28.8v44.3h-7.7l-2.3-9.5c-4.5,7.2-11.2,10.8-20.1,10.8c-9.5,0-17-3.7-22.5-11.2
				c-5.5-7.4-8.3-17.5-8.3-30.1c0-13.6,2.7-24.6,8.2-32.5c5.4-8,13.6-11.9,24.2-11.9c17,0,26.6,9.5,28.6,28.5l-16.4,2.7
				c-1.2-10.8-5.1-16.3-11.8-16.3c-4.1,0-7.4,2-9.8,6s-3.6,11.6-3.6,22.9c0,9.9,1.2,17,3.6,21s5.9,6,10.5,6
				c7.4,0,11.2-5.5,11.2-16.5h-12.5L711.1,52.5L711.1,52.5z"/>
			<path class="st5" d="M754.2,13.7h18.2v83.1h-18.2V13.7z"/>
			<g>
				<path class="st5" d="M862.9,35.4h10c3.1,0,5.4,0.3,7.1,0.9c1.7,0.6,3.1,1.7,4.3,3.4c1.1,1.7,1.7,4,1.7,6.6s-0.3,4.6-1.4,6.3
					c-1.1,1.7-2.3,2.9-3.7,3.7c-1.7,0.9-4,1.1-7.4,1.1h-2.6v12.9h-7.7L862.9,35.4L862.9,35.4z M870.6,40.8v10.3h2.3
					c2,0,3.4-0.3,4-1.4c0.6-1.1,0.9-2.3,0.9-3.7c0-1.1-0.3-2.3-0.6-3.1c-0.3-0.9-1.1-1.4-1.7-1.7c-0.6-0.3-1.4-0.3-2.6-0.3H870.6
					L870.6,40.8L870.6,40.8z"/>
				<path class="st5" d="M888.9,44.2h6.3v6.3c1.1-4.6,3.1-6.6,6-6.6c0.3,0,0.9,0,1.1,0.3v7.1c-0.6,0-1.1-0.3-1.1-0.3
					c-3.4,0-5.1,2.6-5.1,7.7V70h-7.1V44.2L888.9,44.2z"/>
				<path class="st5" d="M925.2,57.1c0,8.9-3.4,13.4-10.6,13.4s-10.6-4.6-10.6-13.4s3.4-13.4,10.6-13.4S925.2,48.2,925.2,57.1z
					 M917.8,57.1c0-3.1-0.3-5.4-0.6-6.6c-0.3-1.1-1.1-1.7-2.3-1.7c-1.1,0-1.7,0.6-2.3,1.7c-0.3,1.1-0.9,3.4-0.9,6.6
					c0,3.1,0.3,5.1,0.6,6.6c0.3,1.1,1.1,1.7,2.3,1.7s2-0.6,2.3-1.7C917.5,62.5,917.8,60.5,917.8,57.1z"/>
				<path class="st5" d="M951.2,39.9v4.6c-0.6-0.3-1.1-0.3-1.7-0.3c-1.4,0-2.3,0.9-2.9,2.3c1.1,1.4,1.7,3.1,1.7,5.1
					c0,2.3-0.9,4.3-2.6,5.7c-1.7,1.4-4,2-6.6,2c-1.1,0-2.3-0.3-3.4-0.3c-1.1,0.6-1.7,1.4-1.7,2s0.3,1.1,1.1,1.1
					c0.6,0.3,2.3,0.3,5.1,0.6c2.6,0.3,4.6,0.3,5.7,0.9c1.1,0.3,2.3,1.1,3.1,2.3c0.9,1.1,1.1,2.6,1.1,4.6c0,5.7-4.3,8.6-12.6,8.6
					c-7.1,0-10.6-2-10.6-6c0-2.3,1.4-3.7,4.3-4.9c-2.3-1.1-3.4-2.6-3.4-4.6c0-2.3,1.4-4,4.6-5.7c-2.6-1.1-3.7-3.4-3.7-6.6
					c0-2.6,0.9-4.6,2.6-5.7c1.7-1.4,4-2,7.1-2c2,0,3.7,0.3,5.4,1.1c0.3-1.7,0.6-3.1,1.4-3.7c0.9-0.9,1.7-1.1,3.4-1.1
					C950.1,39.9,950.7,39.9,951.2,39.9z M936.1,68.8c-1.4,0.6-2.3,1.7-2.3,3.1c0,1.7,2,2.6,5.7,2.6c3.4,0,5.1-0.9,5.1-2.6
					c0-0.6-0.3-1.1-0.6-1.7c-0.3-0.3-0.9-0.6-1.4-0.9c-0.6-0.3-1.7-0.3-3.7-0.3C938.1,69.1,937,69.1,936.1,68.8z M941.5,51.7
					c0-2.9-0.9-4.3-2.3-4.3c-1.1,0-1.7,0.3-2,1.1c-0.3,0.9-0.6,1.7-0.6,3.1c0,2.6,0.9,3.7,2.3,3.7c0.9,0,1.4-0.3,1.7-1.1
					C941.2,54.5,941.5,53.4,941.5,51.7z"/>
				<path class="st5" d="M960.7,42.2h-7.1v-7.1h7.1V42.2z M953.5,44.2h7.1V70h-7.1V44.2z"/>
				<path class="st5" d="M985,53.7l-6.6,0.3c-0.3-1.7-0.3-2.9-0.9-3.7c-0.6-0.9-1.1-1.1-2-1.1c-2.3,0-3.7,2.6-3.7,7.7
					c0,3.1,0.3,5.1,0.9,6.3c0.6,1.1,1.4,1.7,2.6,1.7c1.7,0,2.9-1.7,3.1-4.9l6.6,0.3c-0.6,6.6-4,10-10,10c-3.1,0-5.7-1.1-7.7-3.4
					s-2.6-5.7-2.6-10c0-4.6,1.1-7.7,2.9-10c1.7-2.3,4.6-3.4,7.7-3.4C981.3,44,984.4,47.1,985,53.7z"/>
				<path class="st5" d="M996.1,42.2H989v-7.1h7.1V42.2z M989,44.2h7.1V70H989V44.2z"/>
				<path class="st5" d="M1021,58.5h-13.4V60c0,2.3,0.3,3.7,1.1,4.6c0.6,0.9,1.4,1.1,2.3,1.1c2.3,0,3.4-1.4,3.7-4.6l6.6,0.3
					c-1.1,6-4.6,8.9-10.3,8.9c-3.4,0-6-1.1-7.7-3.7c-1.7-2.6-2.6-5.4-2.6-9.4c0-4.6,1.1-7.7,2.9-10.3c2-2.3,4.6-3.4,7.7-3.4
					c2.9,0,5.4,1.1,7.1,3.1C1020.1,49.1,1021,52.8,1021,58.5z M1014.1,54.2c0-0.3,0-0.6,0-0.9c0-3.1-1.1-5.1-3.4-5.1
					s-3.1,1.7-3.1,5.7L1014.1,54.2L1014.1,54.2L1014.1,54.2z"/>
				<path class="st5" d="M1025.3,35.4h7.1V70h-7.1V35.4z"/>
				<path class="st5" d="M1059.9,35.4h7.1V70h-6.6v-4.3c-1.1,3.1-3.1,4.6-5.7,4.6c-2.9,0-4.9-1.1-6.3-3.7c-1.4-2.3-2-5.7-2-9.4
					c0-4.6,0.9-7.7,2.3-10c1.7-2.3,3.7-3.1,6.3-3.1c2.3,0,4,1.1,5.1,2.9L1059.9,35.4L1059.9,35.4z M1059.9,55.1
					c0-2.6-0.3-4.3-0.9-5.1c-0.6-0.9-1.4-1.1-2.3-1.1c-1.1,0-2,0.6-2.3,1.7s-0.6,3.7-0.6,7.4c0,2.9,0.3,4.6,0.9,5.7
					c0.3,1.1,1.1,1.7,2.3,1.7c1.1,0,1.7-0.3,2.3-1.1c0.6-0.9,1.1-2.3,1.1-4.6L1059.9,55.1L1059.9,55.1z"/>
				<path class="st5" d="M1092.2,58.5h-13.4V60c0,2.3,0.3,3.7,1.1,4.6c0.6,0.9,1.4,1.1,2.3,1.1c2.3,0,3.4-1.4,3.7-4.6l6.6,0.3
					c-1.1,6-4.6,8.9-10.3,8.9c-3.4,0-6-1.1-7.7-3.7c-1.7-2.6-2.6-5.4-2.6-9.4c0-4.6,1.1-7.7,2.9-10.3c2-2.3,4.6-3.4,7.7-3.4
					c2.9,0,5.4,1.1,7.1,3.1C1091,49.1,1092.2,52.8,1092.2,58.5z M1085.3,54.2c0-0.3,0-0.6,0-0.9c0-3.1-1.1-5.1-3.4-5.1
					s-3.1,1.7-3.1,5.7L1085.3,54.2L1085.3,54.2L1085.3,54.2z"/>
				<path class="st5" d="M1118.8,51.7h12v18.6h-3.1l-1.1-4c-1.7,3.1-4.6,4.6-8.6,4.6s-7.1-1.7-9.4-4.6c-2.3-3.1-3.4-7.1-3.4-12.6
					c0-5.7,1.1-10.3,3.4-13.4c2.3-3.4,5.7-5.1,10-5.1c7.1,0,11.1,4,12,12l-6.9,1.1c-0.3-4.6-2.3-6.9-4.9-6.9c-1.7,0-3.1,0.9-4,2.3
					c-1.1,1.7-1.7,4.9-1.7,9.4c0,4.3,0.3,7.1,1.4,8.9c1.1,1.7,2.3,2.6,4.6,2.6c3.1,0,4.6-2.3,4.6-6.9h-5.1L1118.8,51.7L1118.8,51.7
					L1118.8,51.7z"/>
				<path class="st5" d="M1155.9,58.5h-13.4V60c0,2.3,0.3,3.7,1.1,4.6c0.6,0.9,1.4,1.1,2.3,1.1c2.3,0,3.4-1.4,3.7-4.6l6.6,0.3
					c-1.1,6-4.6,8.9-10.3,8.9c-3.4,0-6-1.1-7.7-3.7c-1.7-2.3-2.6-5.4-2.6-9.4c0-4.6,1.1-7.7,2.9-10.3c2-2.3,4.6-3.4,7.7-3.4
					c2.9,0,5.4,1.1,7.1,3.1C1154.8,49.1,1155.9,52.8,1155.9,58.5z M1149.1,54.2c0-0.3,0-0.6,0-0.9c0-3.1-1.1-5.1-3.4-5.1
					c-2.3,0-3.1,1.7-3.1,5.7L1149.1,54.2L1149.1,54.2L1149.1,54.2z"/>
				<path class="st5" d="M1177.1,50.5l-5.1,1.7c-0.6-2.3-2-3.4-3.7-3.4c-1.4,0-2.3,0.9-2.3,2.3c0,0.9,0.3,1.4,0.9,2
					c0.6,0.3,1.7,1.1,3.4,1.7c2,0.6,3.4,1.1,4.3,1.7c1.1,0.6,1.7,1.4,2.3,2.3c0.6,0.9,1.1,2.3,1.1,3.7c0,2.3-0.9,4.6-2.6,6
					c-1.7,1.7-4,2.3-7.1,2.3c-5.7,0-9.1-2.6-9.7-7.7l5.7-1.1c0.3,2.6,1.7,3.7,4,3.7c1.7,0,2.9-0.9,2.9-2.3c0-0.9-0.3-1.4-0.9-2
					c-0.6-0.3-1.7-1.1-3.1-1.4c-3.1-1.1-5.1-2-6-3.4c-0.9-1.4-1.7-2.9-1.7-4.6c0-2.3,0.9-4.6,2.6-6c1.7-1.4,3.7-2.3,6.6-2.3
					C1172.8,43.7,1176,46.2,1177.1,50.5z"/>
				<path class="st5" d="M1182.8,36.5l7.1-0.3v8h4.6V50h-4.6v9.4c0,1.7,0,2.9,0.3,3.4c0,0.6,0.3,1.1,0.9,1.1
					c0.3,0.3,1.1,0.6,2.3,0.6c0.6,0,1.1,0,2,0V70c-1.7,0.3-3.1,0.6-4.6,0.6c-2.3,0-3.7-0.3-5.1-1.1c-1.1-0.9-1.7-1.7-2.3-3.1
					c-0.3-1.1-0.3-3.1-0.3-6V50h-2.9v-5.7h2.9L1182.8,36.5L1182.8,36.5z"/>
				<path class="st5" d="M1204.8,42.2h-7.1v-7.1h7.1V42.2z M1197.4,44.2h7.1V70h-7.1V44.2z"/>
				<path class="st5" d="M1229.7,57.1c0,8.9-3.4,13.4-10.6,13.4s-10.6-4.6-10.6-13.4s3.4-13.4,10.6-13.4S1229.7,48.2,1229.7,57.1z
					 M1222.5,57.1c0-3.1-0.3-5.4-0.6-6.6c-0.3-1.1-1.1-1.7-2.3-1.7c-1.1,0-1.7,0.6-2.3,1.7c-0.3,1.1-0.9,3.4-0.9,6.6
					c0,3.1,0.3,5.1,0.6,6.6c0.3,1.1,1.1,1.7,2.3,1.7s2-0.6,2.3-1.7C1222,62.5,1222.5,60.5,1222.5,57.1z"/>
				<path class="st5" d="M1234,44.2h6.9v3.4c1.1-2.6,3.4-4,6.6-4c1.7,0,3.1,0.3,4.3,1.1c1.1,0.9,1.7,1.7,2,2.9
					c0.3,1.1,0.3,3.1,0.3,5.4V70h-7.1V53.1c0-1.7-0.3-2.9-0.6-3.1c-0.3-0.3-1.1-0.6-1.7-0.6c-1.1,0-2.3,0.3-2.6,1.1
					c-0.3,0.9-0.6,2.3-0.6,4.6v15.2h-7.1L1234,44.2L1234,44.2z"/>
				<path class="st5" d="M1269.1,35.4h7.7V70h-7.7V35.4z"/>
				<path class="st5" d="M1282.6,44.2h6.9v3.4c1.1-2.6,3.4-4,6.6-4c1.7,0,3.1,0.3,4.3,1.1c1.1,0.9,1.7,1.7,2,2.9
					c0.3,1.1,0.3,3.1,0.3,5.4V70h-7.1V53.1c0-1.7-0.3-2.9-0.6-3.1c-0.3-0.3-1.1-0.6-1.7-0.6c-1.1,0-2.3,0.3-2.6,1.1
					c-0.3,0.9-0.6,2.3-0.6,4.6v15.2h-7.1L1282.6,44.2L1282.6,44.2z"/>
				<path class="st5" d="M1308.6,36.5l7.1-0.3v8h4.6V50h-4.6v9.4c0,1.7,0,2.9,0.3,3.4c0,0.6,0.3,1.1,0.9,1.1
					c0.3,0.3,1.1,0.6,2.3,0.6c0.6,0,1.1,0,2,0V70c-1.7,0.3-3.1,0.6-4.6,0.6c-2.3,0-3.7-0.3-5.1-1.1c-1.1-0.9-1.7-1.7-2.3-3.1
					c-0.3-1.1-0.3-3.1-0.3-6V50h-2.9v-5.7h2.9L1308.6,36.5L1308.6,36.5z"/>
				<path class="st5" d="M1343.5,58.5H1330V60c0,2.3,0.3,3.7,1.1,4.6c0.6,0.9,1.4,1.1,2.3,1.1c2.3,0,3.4-1.4,3.7-4.6l6.6,0.3
					c-1.1,6-4.6,8.9-10.3,8.9c-3.4,0-6-1.1-7.7-3.7c-1.7-2.6-2.6-5.4-2.6-9.4c0-4.6,1.1-7.7,2.9-10.3c2-2.3,4.6-3.4,7.7-3.4
					c2.9,0,5.4,1.1,7.1,3.1C1342.3,49.1,1343.5,52.8,1343.5,58.5z M1329.5,39.4l8.6-8l2.9,4.3l-9.4,5.7L1329.5,39.4z M1336.6,54.2
					c0-0.3,0-0.6,0-0.9c0-3.1-1.1-5.1-3.4-5.1S1330,50,1330,54L1336.6,54.2L1336.6,54.2L1336.6,54.2z"/>
				<path class="st5" d="M1369.5,39.9v4.6c-0.6-0.3-1.1-0.3-1.7-0.3c-1.4,0-2.3,0.9-2.9,2.3c1.1,1.4,1.7,3.1,1.7,5.1
					c0,2.3-0.9,4.3-2.6,5.7s-4,2-6.6,2c-1.1,0-2.3-0.3-3.4-0.3c-1.1,0.6-1.7,1.4-1.7,2s0.3,1.1,1.1,1.1c0.6,0.3,2.3,0.3,5.1,0.6
					c2.6,0.3,4.6,0.3,5.7,0.9c1.1,0.3,2.3,1.1,3.1,2.3c0.9,1.1,1.1,2.6,1.1,4.6c0,5.7-4.3,8.6-12.6,8.6c-7.1,0-10.6-2-10.6-6
					c0-2.3,1.4-3.7,4.3-4.9c-2.3-1.1-3.4-2.6-3.4-4.6c0-2.3,1.4-4,4.6-5.7c-2.6-1.1-3.7-3.4-3.7-6.6c0-2.6,0.9-4.6,2.6-5.7
					c1.7-1.4,4-2,7.1-2c2,0,3.7,0.3,5.4,1.1c0.3-1.7,0.6-3.1,1.4-3.7c0.9-0.9,1.7-1.1,3.4-1.1C1368.1,39.9,1368.6,39.9,1369.5,39.9z
					 M1354.3,68.8c-1.4,0.6-2.3,1.7-2.3,3.1c0,1.7,2,2.6,5.7,2.6c3.4,0,5.1-0.9,5.1-2.6c0-0.6-0.3-1.1-0.6-1.7
					c-0.3-0.3-0.9-0.6-1.4-0.9c-0.6-0.3-1.7-0.3-3.7-0.3C1356.3,69.1,1355.2,69.1,1354.3,68.8z M1359.8,51.7c0-2.9-0.9-4.3-2.3-4.3
					c-1.1,0-1.7,0.3-2,1.1c-0.3,0.6-0.6,1.7-0.6,3.1c0,2.6,0.9,3.7,2.3,3.7c0.9,0,1.4-0.3,1.7-1.1
					C1359.5,54.5,1359.8,53.4,1359.8,51.7z"/>
				<path class="st5" d="M1371.5,44.2h6.3v6.3c1.1-4.6,3.1-6.6,6-6.6c0.3,0,0.9,0,1.1,0.3v7.1c-0.6,0-1.1-0.3-1.1-0.3
					c-3.4,0-5.1,2.6-5.1,7.7V70h-7.1L1371.5,44.2L1371.5,44.2z"/>
				<path class="st5" d="M1407.2,58.5h-13.4V60c0,2.3,0.3,3.7,1.1,4.6c0.6,0.9,1.4,1.1,2.3,1.1c2.3,0,3.4-1.4,3.7-4.6l6.6,0.3
					c-1.1,6-4.6,8.9-10.3,8.9c-3.4,0-6-1.1-7.7-3.7c-1.7-2.3-2.6-5.4-2.6-9.4c0-4.6,1.1-7.7,2.9-10.3c2-2.3,4.6-3.4,7.7-3.4
					c2.9,0,5.4,1.1,7.1,3.1C1406.4,49.1,1407.2,52.8,1407.2,58.5z M1393.2,39.4l8.6-8l2.9,4.3l-9.4,5.7L1393.2,39.4z M1400.4,54.2
					c0-0.3,0-0.6,0-0.9c0-3.1-1.1-5.1-3.4-5.1s-3.1,1.7-3.1,5.7L1400.4,54.2L1400.4,54.2L1400.4,54.2z"/>
				<path class="st5" d="M1431.2,58.5h-13.4V60c0,2.3,0.3,3.7,1.1,4.6c0.6,0.9,1.4,1.1,2.3,1.1c2.3,0,3.4-1.4,3.7-4.6l6.6,0.3
					c-1.1,6-4.6,8.9-10.3,8.9c-3.4,0-6-1.1-7.7-3.7c-1.7-2.3-2.6-5.4-2.6-9.4c0-4.6,1.1-7.7,2.9-10.3c2-2.3,4.6-3.4,7.7-3.4
					c2.9,0,5.4,1.1,7.1,3.1C1430.1,49.1,1431.2,52.8,1431.2,58.5z M1424.4,54.2c0-0.3,0-0.6,0-0.9c0-3.1-1.1-5.1-3.4-5.1
					c-2.3,0-3.1,1.7-3.1,5.7L1424.4,54.2L1424.4,54.2L1424.4,54.2z"/>
			</g>
			<line class="st6" x1="818.4" y1="0.1" x2="818.4" y2="110.4"/>
		</g>
	</g>
</g>
</svg>
