<?xml version="1.0" encoding="utf-8"?>
<!-- Generator: Adobe Illustrator 25.0.0, SVG Export Plug-In . SVG Version: 6.00 Build 0)  -->
<svg version="1.1" xmlns="http://www.w3.org/2000/svg" xmlns:xlink="http://www.w3.org/1999/xlink" x="0px" y="0px"
	 viewBox="0 0 162 47.5" style="enable-background:new 0 0 162 47.5;" xml:space="preserve">
<style type="text/css">
	.st0{display:none;}
	.st1{display:inline;fill:#4993D0;}
	.st2{display:inline;fill:#FFFFFF;}
	.st3{font-family:'FranklinGothic-DemiCond';}
	.st4{font-size:27.7906px;}
	.st5{fill:#FFFFFF;}
	.st6{font-size:17.0867px;}
	.st7{display:inline;}
</style>
<g id="Calque_1" class="st0">
	<path class="st1" d="M158.3,47.5H3.7c-2,0-3.7-1.6-3.7-3.7V3.7C0,1.6,1.6,0,3.7,0h154.7c2,0,3.7,1.6,3.7,3.7v40.2
		C162,45.9,160.4,47.5,158.3,47.5z"/>
	<text transform="matrix(1 0 0 1 25.8946 31.0684)" class="st2 st3 st4">Connexion</text>
</g>
<g id="Calque_3">
	<path d="M158.6,47.7H3.9c-2,0-3.7-1.6-3.7-3.7V3.9c0-2,1.6-3.7,3.7-3.7h154.7c2,0,3.7,1.6,3.7,3.7v40.2
		C162.3,46.1,160.6,47.7,158.6,47.7z"/>
	<text transform="matrix(1 0 0 1 32.5014 18.2485)"><tspan x="0" y="0" class="st5 st3 st6">Réinitialisation</tspan><tspan x="7" y="20.5" class="st5 st3 st6">mot de passe</tspan></text>
</g>
<g id="Calque_2" class="st0">
	<path class="st1" d="M92.6,35.1H59.1c-3.8,0-6.8-3.1-6.8-6.8V7c0-3.8,3.1-6.8,6.8-6.8h33.6c3.8,0,6.8,3.1,6.8,6.8v21.2
		C99.4,32,96.4,35.1,92.6,35.1z"/>
	<g class="st7">
		<g>
			<g>
				<path class="st5" d="M81.5,19.9c-1-1-2.3-1.8-3.7-2.1c1.5-0.7,2.5-2.2,2.5-4c0-2.4-2-4.4-4.4-4.4c-2.4,0-4.4,2-4.4,4.4
					c0,1.7,1,3.2,2.5,4c-1.4,0.3-2.7,1.1-3.7,2.1c-1.5,1.5-2.3,3.5-2.3,5.6c0,0.2,0.2,0.3,0.3,0.3h15.2c0.2,0,0.3-0.2,0.3-0.3
					C83.8,23.4,83,21.4,81.5,19.9L81.5,19.9z M68.6,25.2"/>
			</g>
		</g>
	</g>
</g>
</svg>
